<?xml version="1.0" encoding="utf-8"?>
<!-- Generator: Adobe Illustrator 21.0.2, SVG Export Plug-In . SVG Version: 6.00 Build 0)  -->
<svg version="1.1" id="Ebene_1" xmlns="http://www.w3.org/2000/svg" xmlns:xlink="http://www.w3.org/1999/xlink" x="0px" y="0px"
	 viewBox="0 0 500 500" style="enable-background:new 0 0 500 500;" xml:space="preserve">
<g>
	<path d="M373,253.2c0-61.9-46.3-113.1-105.6-121.2V67c0-9.4-7.5-17.5-17.5-17.5c-9.4,0-17.5,7.5-17.5,17.5v64.4
		c-59.4,8.1-105.6,59.4-105.6,121.3S173,365.7,232.4,373.8v60.6c0,9.4,7.5,17.5,17.5,17.5c9.4,0,17.5-7.5,17.5-17.5v-60.6
		C327.4,366.3,373,315.1,373,253.2z M250.5,341.3c-48.8,0-88.1-39.4-88.1-88.1s39.4-88.1,88.1-88.1s88.1,39.4,88.1,88.1
		S299.3,341.3,250.5,341.3z"/>
	<path d="M241.2,207.6l-29.4,79.4h18.1l5.6-16.2h31.3l5,16.2h18.1l-29.4-79.4H241.2z M239.3,257.6l11.3-33.1l0,0l11.2,33.1H239.3z"
		/>
</g>
</svg>
