<?xml version="1.0" encoding="utf-8"?>
<!-- Generator: Adobe Illustrator 21.0.2, SVG Export Plug-In . SVG Version: 6.00 Build 0)  -->
<svg version="1.1" id="Ebene_1" xmlns="http://www.w3.org/2000/svg" xmlns:xlink="http://www.w3.org/1999/xlink" x="0px" y="0px"
	 viewBox="0 0 500 500" style="enable-background:new 0 0 500 500;" xml:space="preserve">
<path d="M370.1,415.6H128.9c-60.6,0-110-49.4-110-110.6c0-46.9,30-88.1,73.1-103.8c5.6-39.4,40-70,81.2-70c3.1,0,5.6,0,8.8,0.6
	c23.8-30,59.4-47.5,98.1-47.5c66.3,0,120,51.3,125,116.3c45,14.4,76.2,56.3,76.2,105C480.1,366.3,430.7,415.6,370.1,415.6z
	 M173.2,168.8c-25,0-45,20-45,45v1.3c0.6,9.4-5.6,16.9-15,18.8c-33.1,6.9-57.5,36.9-57.5,71.3c0,40,32.5,73.1,72.5,73.1h241.2
	c40,0,73.1-32.5,73.1-73.1c0-35.6-25.6-65.6-60.6-71.9c-9.4-1.9-16.3-10-15.6-19.4v-1.9c0-0.6,0-1.9,0-2.5
	c0-48.1-39.4-87.5-87.5-87.5c-30,0-57.5,15-73.7,40.6c-4.4,6.9-13.1,10-20.6,8.1C180.7,169.4,177,168.8,173.2,168.8z M201.4,238.1
	c7.5,0,15.6,1.9,23.1,5l-4.4,13.1c-6.9-3.1-11.9-4.4-18.8-4.4c-14.4,0-21.9,11.3-21.9,28.1s7.5,28.1,21.9,28.1
	c6.3,0,11.9-1.3,18.8-4.4l4.4,13.1c-7.5,3.7-15.6,5-23.1,5c-25.6,0-39.4-16.9-39.4-42.5C162,255,175.7,238.1,201.4,238.1z
	 M270.7,322.5c-26.9,0-39.4-18.8-39.4-42.5s11.9-42.5,39.4-42.5c26.9,0,38.8,18.7,38.8,42.5C309.5,303.8,297.6,322.5,270.7,322.5z
	 M270.7,308.8c16.2,0,21.9-11.9,21.9-28.1c0-16.3-5.6-28.1-21.9-28.1c-16.3,0-21.9,11.9-21.9,28.1
	C248.9,296.3,254.5,308.8,270.7,308.8z M333.2,331.3H352v7.5h-30.6v-6.3l16.3-15.6c2.5-2.5,4.4-5,4.4-8.8c0-3.1-2.5-6.3-6.9-6.3
	c-4.4,0-6.9,1.9-9.4,4.4l-4.4-6.3c2.5-2.5,7.5-6.3,14.4-6.3c9.4,0,16.3,5,16.3,13.8c0,6.3-4.4,10.6-6.9,13.1L333.2,331.3
	L333.2,331.3z"/>
</svg>
