<?xml version="1.0" encoding="utf-8"?>
<!-- Generator: Adobe Illustrator 21.0.2, SVG Export Plug-In . SVG Version: 6.00 Build 0)  -->
<svg version="1.1" id="Ebene_1" xmlns="http://www.w3.org/2000/svg" xmlns:xlink="http://www.w3.org/1999/xlink" x="0px" y="0px"
	 viewBox="0 0 500 500" style="enable-background:new 0 0 500 500;" xml:space="preserve">
<path d="M280.9,152.9c10-6.7,46.7-3.3,46.7-3.3v-46.7c0,0-58.3-10-85,10s-25,58.3-25,58.3v40h-45v53.3h45v135h55V262.9h45l6.7-53.3
	h-51.7v-40C272.5,169.6,270.9,157.9,280.9,152.9z"/>
</svg>
