{
  "arrow": {
    "down-double": "icon-arrow-down-double",
    "down": "icon-arrow-down",
    "left-double": "icon-arrow-left-double",
    "left": "icon-arrow-left",
    "right-double": "icon-arrow-right-double",
    "right": "icon-arrow-right",
    "up-double": "icon-arrow-up-double",
    "up": "icon-arrow-up"
  },
  "base": {
    "360": "icon-base-360",
    "accessories": "icon-base-accessories",
    "airbag": "icon-base-airbag",
    "app-store": "icon-base-app-store",
    "arrow-double-down": "icon-base-arrow-double-down",
    "arrow-double-left": "icon-base-arrow-double-left",
    "arrow-double-right": "icon-base-arrow-double-right",
    "arrow-double-up": "icon-base-arrow-double-up",
    "arrow-down": "icon-base-arrow-down",
    "arrow-left": "icon-base-arrow-left",
    "arrow-right": "icon-base-arrow-right",
    "arrow-up": "icon-base-arrow-up",
    "body-coupe": "icon-base-body-coupe",
    "body-hatchback": "icon-base-body-hatchback",
    "body-pickup": "icon-base-body-pickup",
    "body-sedan": "icon-base-body-sedan",
    "body-suv": "icon-base-body-suv",
    "body-universal": "icon-base-body-universal",
    "body-van": "icon-base-body-van",
    "brake": "icon-base-brake",
    "brochure": "icon-base-brochure",
    "business-customers": "icon-base-business-customers",
    "calculate": "icon-base-calculate",
    "calendar": "icon-base-calendar",
    "chassis-back": "icon-base-chassis-back",
    "chassis-front": "icon-base-chassis-front",
    "chassis-full": "icon-base-chassis-full",
    "checkmark": "icon-base-checkmark",
    "child-seat": "icon-base-child-seat",
    "clearance": "icon-base-clearance",
    "climate": "icon-base-climate",
    "clock": "icon-base-clock",
    "close": "icon-base-close",
    "configure": "icon-base-configure",
    "consumption": "icon-base-consumption",
    "convince": "icon-base-convince",
    "corporate": "icon-base-corporate",
    "credit-calculator": "icon-base-credit-calculator",
    "cruise-control": "icon-base-cruise-control",
    "customer": "icon-base-customer",
    "day": "icon-base-day",
    "dealer": "icon-base-dealer",
    "delete": "icon-base-delete",
    "directions": "icon-base-directions",
    "door": "icon-base-door",
    "download": "icon-base-download",
    "edit": "icon-base-edit",
    "email": "icon-base-email",
    "emission": "icon-base-emission",
    "engine-diesel": "icon-base-engine-diesel",
    "engine-electric": "icon-base-engine-electric",
    "engine-gas": "icon-base-engine-gas",
    "engine-hybrid": "icon-base-engine-hybrid",
    "engine-petrol": "icon-base-engine-petrol",
    "engine": "icon-base-engine",
    "exclamation": "icon-base-exclamation",
    "favourite": "icon-base-favourite",
    "fax": "icon-base-fax",
    "filter": "icon-base-filter",
    "forward": "icon-base-forward",
    "front-assist": "icon-base-front-assist",
    "fullscreen-enter": "icon-base-fullscreen-enter",
    "fullscreen-exit": "icon-base-fullscreen-exit",
    "get-your-volkswagen": "icon-base-get-your-volkswagen",
    "gti": "icon-base-gti",
    "heat": "icon-base-heat",
    "high-beam": "icon-base-high-beam",
    "home": "icon-base-home",
    "image-gallery": "icon-base-image-gallery",
    "image": "icon-base-image",
    "importer": "icon-base-importer",
    "info": "icon-base-info",
    "link-arrow": "icon-base-link-arrow",
    "locate-me": "icon-base-locate-me",
    "lock": "icon-base-lock",
    "low-beam": "icon-base-low-beam",
    "mail": "icon-base-mail",
    "menu": "icon-base-menu",
    "messenger-skype": "icon-base-messenger-skype",
    "messenger-telegram": "icon-base-messenger-telegram",
    "messenger-viber": "icon-base-messenger-viber",
    "messenger-whats-app": "icon-base-messenger-whats-app",
    "mileage": "icon-base-mileage",
    "minus": "icon-base-minus",
    "models": "icon-base-models",
    "more": "icon-base-more",
    "mount": "icon-base-mount",
    "news": "icon-base-news",
    "night": "icon-base-night",
    "offer": "icon-base-offer",
    "owners": "icon-base-owners",
    "pause": "icon-base-pause",
    "percent": "icon-base-percent",
    "performance": "icon-base-performance",
    "phone": "icon-base-phone",
    "pin-clean": "icon-base-pin-clean",
    "pin-phone": "icon-base-pin-phone",
    "pin": "icon-base-pin",
    "play": "icon-base-play",
    "plus": "icon-base-plus",
    "print": "icon-base-print",
    "purchase": "icon-base-purchase",
    "question": "icon-base-question",
    "record": "icon-base-record",
    "reload": "icon-base-reload",
    "responsibility": "icon-base-responsibility",
    "rewind": "icon-base-rewind",
    "rouble": "icon-base-rouble",
    "route-by-car": "icon-base-route-by-car",
    "route-by-foot": "icon-base-route-by-foot",
    "route-public-transport": "icon-base-route-public-transport",
    "route-start": "icon-base-route-start",
    "search": "icon-base-search",
    "seat": "icon-base-seat",
    "service-calculator": "icon-base-service-calculator",
    "service-unit": "icon-base-service-unit",
    "service": "icon-base-service",
    "settings": "icon-base-settings",
    "share": "icon-base-share",
    "skip-back": "icon-base-skip-back",
    "skip-forward": "icon-base-skip-forward",
    "snow": "icon-base-snow",
    "social-facebook": "icon-base-social-facebook",
    "social-google-plus": "icon-base-social-google-plus",
    "social-linkedin": "icon-base-social-linkedin",
    "social-odnoklassniki": "icon-base-social-odnoklassniki",
    "social-twitter": "icon-base-social-twitter",
    "social-vkontakte": "icon-base-social-vkontakte",
    "sound-off": "icon-base-sound-off",
    "sound-on": "icon-base-sound-on",
    "start-stop": "icon-base-start-stop",
    "stop": "icon-base-stop",
    "support": "icon-base-support",
    "test-drive": "icon-base-test-drive",
    "thumbnails-large": "icon-base-thumbnails-large",
    "thumbnails-small": "icon-base-thumbnails-small",
    "torque": "icon-base-torque",
    "transmission-automatic": "icon-base-transmission-automatic",
    "transmission-manual": "icon-base-transmission-manual",
    "trunk": "icon-base-trunk",
    "upload": "icon-base-upload",
    "used-cars": "icon-base-used-cars",
    "video": "icon-base-video",
    "view": "icon-base-view",
    "volkswagen-code": "icon-base-volkswagen-code",
    "website": "icon-base-website",
    "window": "icon-base-window",
    "zoom-in": "icon-base-zoom-in",
    "zoom-out": "icon-base-zoom-out"
  },
  "competence": {
    "body_repair": "icon-competence-body_repair",
    "corporate": "icon-competence-corporate",
    "hybrid": "icon-competence-hybrid",
    "new_cars": "icon-competence-new_cars",
    "service": "icon-competence-service",
    "spare_details": "icon-competence-spare_details",
    "used_cars": "icon-competence-used_cars"
  },
  "currency": {
    "rouble": "icon-currency-rouble"
  },
  "engine": {
    "automatic": "icon-engine-automatic",
    "CO2-emissions": "icon-engine-CO2-emissions",
    "diesel": "icon-engine-diesel",
    "electric": "icon-engine-electric",
    "fuel-consumption": "icon-engine-fuel-consumption",
    "gear-change": "icon-engine-gear-change",
    "hybrid": "icon-engine-hybrid",
    "natural-gas": "icon-engine-natural-gas",
    "petrol": "icon-engine-petrol",
    "power": "icon-engine-power"
  },
  "features": {
    "engine": "icon-features-engine",
    "fuel-consumption": "icon-features-fuel-consumption",
    "spin": "icon-features-spin",
    "trunk": "icon-features-trunk"
  },
  "full": {
    "360": "icon-full-360",
    "Accessories": "icon-full-Accessories",
    "Airbag": "icon-full-Airbag",
    "AppStore": "icon-full-AppStore",
    "ArrowDoubleDown": "icon-full-ArrowDoubleDown",
    "ArrowDoubleLeft": "icon-full-ArrowDoubleLeft",
    "ArrowDoubleRight": "icon-full-ArrowDoubleRight",
    "ArrowDoubleUp": "icon-full-ArrowDoubleUp",
    "ArrowDown": "icon-full-ArrowDown",
    "ArrowLeft": "icon-full-ArrowLeft",
    "ArrowRight": "icon-full-ArrowRight",
    "ArrowUp": "icon-full-ArrowUp",
    "BodyCoupe": "icon-full-BodyCoupe",
    "BodyHatchback": "icon-full-BodyHatchback",
    "BodyPickup": "icon-full-BodyPickup",
    "BodySedan": "icon-full-BodySedan",
    "BodySUV": "icon-full-BodySUV",
    "BodyUniversal": "icon-full-BodyUniversal",
    "BodyVan": "icon-full-BodyVan",
    "Brake": "icon-full-Brake",
    "Brochure": "icon-full-Brochure",
    "BusinessCustomers": "icon-full-BusinessCustomers",
    "Calculate": "icon-full-Calculate",
    "Calendar": "icon-full-Calendar",
    "ChassisBack": "icon-full-ChassisBack",
    "ChassisFront": "icon-full-ChassisFront",
    "ChassisFull": "icon-full-ChassisFull",
    "Checkmark": "icon-full-Checkmark",
    "ChildSeat": "icon-full-ChildSeat",
    "Clearance": "icon-full-Clearance",
    "Climate": "icon-full-Climate",
    "Clock": "icon-full-Clock",
    "Close": "icon-full-Close",
    "Configure": "icon-full-Configure",
    "Consumption": "icon-full-Consumption",
    "Convince": "icon-full-Convince",
    "Corporate": "icon-full-Corporate",
    "CreditCalculator": "icon-full-CreditCalculator",
    "CruiseControl": "icon-full-CruiseControl",
    "Customer": "icon-full-Customer",
    "Day": "icon-full-Day",
    "Dealer": "icon-full-Dealer",
    "Delete": "icon-full-Delete",
    "Directions": "icon-full-Directions",
    "Door": "icon-full-Door",
    "Download": "icon-full-Download",
    "Edit": "icon-full-Edit",
    "Email": "icon-full-Email",
    "Emission": "icon-full-Emission",
    "Engine": "icon-full-Engine",
    "EngineDiesel": "icon-full-EngineDiesel",
    "EngineElectric": "icon-full-EngineElectric",
    "EngineGas": "icon-full-EngineGas",
    "EngineHybrid": "icon-full-EngineHybrid",
    "EnginePetrol": "icon-full-EnginePetrol",
    "Exclamation": "icon-full-Exclamation",
    "Favourite": "icon-full-Favourite",
    "Fax": "icon-full-Fax",
    "Filter": "icon-full-Filter",
    "Forward": "icon-full-Forward",
    "FrontAssist": "icon-full-FrontAssist",
    "FullscreenEnter": "icon-full-FullscreenEnter",
    "FullscreenExit": "icon-full-FullscreenExit",
    "GetYourVolkswagen": "icon-full-GetYourVolkswagen",
    "GTI": "icon-full-GTI",
    "Heat": "icon-full-Heat",
    "HighBeam": "icon-full-HighBeam",
    "Home": "icon-full-Home",
    "Image": "icon-full-Image",
    "ImageGallery": "icon-full-ImageGallery",
    "Importer": "icon-full-Importer",
    "Info": "icon-full-Info",
    "LinkArrow": "icon-full-LinkArrow",
    "LocateMe": "icon-full-LocateMe",
    "Lock": "icon-full-Lock",
    "LowBeam": "icon-full-LowBeam",
    "Mail": "icon-full-Mail",
    "Menu": "icon-full-Menu",
    "MessengerSkype": "icon-full-MessengerSkype",
    "MessengerTelegram": "icon-full-MessengerTelegram",
    "MessengerViber": "icon-full-MessengerViber",
    "MessengerWhatsApp": "icon-full-MessengerWhatsApp",
    "Mileage": "icon-full-Mileage",
    "Minus": "icon-full-Minus",
    "Models": "icon-full-Models",
    "More": "icon-full-More",
    "Mount": "icon-full-Mount",
    "News": "icon-full-News",
    "Night": "icon-full-Night",
    "Offer": "icon-full-Offer",
    "Owners": "icon-full-Owners",
    "Pause": "icon-full-Pause",
    "Percent": "icon-full-Percent",
    "Performance": "icon-full-Performance",
    "Phone": "icon-full-Phone",
    "Pin": "icon-full-Pin",
    "PinClean": "icon-full-PinClean",
    "PinPhone": "icon-full-PinPhone",
    "Play": "icon-full-Play",
    "Plus": "icon-full-Plus",
    "Print": "icon-full-Print",
    "Purchase": "icon-full-Purchase",
    "Question": "icon-full-Question",
    "Record": "icon-full-Record",
    "Reload": "icon-full-Reload",
    "Responsibility": "icon-full-Responsibility",
    "Rewind": "icon-full-Rewind",
    "Rouble": "icon-full-Rouble",
    "RouteByCar": "icon-full-RouteByCar",
    "RouteByFoot": "icon-full-RouteByFoot",
    "RoutePublicTransport": "icon-full-RoutePublicTransport",
    "RouteStart": "icon-full-RouteStart",
    "Search": "icon-full-Search",
    "Seat": "icon-full-Seat",
    "Service": "icon-full-Service",
    "ServiceCalculator": "icon-full-ServiceCalculator",
    "ServiceUnit": "icon-full-ServiceUnit",
    "Settings": "icon-full-Settings",
    "Share": "icon-full-Share",
    "SkipBack": "icon-full-SkipBack",
    "SkipForward": "icon-full-SkipForward",
    "Snow": "icon-full-Snow",
    "SocialFacebook": "icon-full-SocialFacebook",
    "SocialGooglePlus": "icon-full-SocialGooglePlus",
    "SocialLinkedin": "icon-full-SocialLinkedin",
    "SocialOdnoklassniki": "icon-full-SocialOdnoklassniki",
    "SocialTwitter": "icon-full-SocialTwitter",
    "SocialVkontakte": "icon-full-SocialVkontakte",
    "SoundOff": "icon-full-SoundOff",
    "SoundOn": "icon-full-SoundOn",
    "StartStop": "icon-full-StartStop",
    "Stop": "icon-full-Stop",
    "Support": "icon-full-Support",
    "TestDrive": "icon-full-TestDrive",
    "ThumbnailsLarge": "icon-full-ThumbnailsLarge",
    "ThumbnailsSmall": "icon-full-ThumbnailsSmall",
    "Torque": "icon-full-Torque",
    "TransmissionAutomatic": "icon-full-TransmissionAutomatic",
    "TransmissionManual": "icon-full-TransmissionManual",
    "Trunk": "icon-full-Trunk",
    "Upload": "icon-full-Upload",
    "UsedCars": "icon-full-UsedCars",
    "Video": "icon-full-Video",
    "View": "icon-full-View",
    "VolkswagenCode": "icon-full-VolkswagenCode",
    "Website": "icon-full-Website",
    "Window": "icon-full-Window",
    "ZoomIn": "icon-full-ZoomIn",
    "ZoomOut": "icon-full-ZoomOut"
  },
  "gender": {
    "female": "icon-gender-female",
    "male": "icon-gender-male"
  },
  "link": {
    "back-to-top": "icon-link-back-to-top",
    "compare": "icon-link-compare",
    "configure": "icon-link-configure",
    "contacts": "icon-link-contacts",
    "delete": "icon-link-delete",
    "download": "icon-link-download",
    "duplicate": "icon-link-duplicate",
    "email": "icon-link-email",
    "fax": "icon-link-fax",
    "forward": "icon-link-forward",
    "locate-me": "icon-link-locate-me",
    "mail": "icon-link-mail",
    "phone": "icon-link-phone",
    "pin": "icon-link-pin",
    "print": "icon-link-print",
    "reload": "icon-link-reload",
    "route": "icon-link-route",
    "search": "icon-link-search",
    "standardlink": "icon-link-standardlink",
    "upload": "icon-link-upload",
    "view": "icon-link-view",
    "website": "icon-link-website",
    "write": "icon-link-write",
    "zoom-in": "icon-link-zoom-in",
    "zoom-out": "icon-link-zoom-out"
  },
  "misc": {
    "minus": "icon-misc-minus",
    "plus": "icon-misc-plus",
    "toggle-XL": "icon-misc-toggle-XL",
    "toggle-XS": "icon-misc-toggle-XS"
  },
  "navigation": {
    "business-customers": "icon-navigation-business-customers",
    "close": "icon-navigation-close",
    "configure": "icon-navigation-configure",
    "corporate-topics": "icon-navigation-corporate-topics",
    "dealer": "icon-navigation-dealer",
    "get-your-volkswagen-1": "icon-navigation-get-your-volkswagen-1",
    "get-your-volkswagen-2": "icon-navigation-get-your-volkswagen-2",
    "get-your-volkswagen": "icon-navigation-get-your-volkswagen",
    "home": "icon-navigation-home",
    "importer": "icon-navigation-importer",
    "menu": "icon-navigation-menu",
    "models": "icon-navigation-models",
    "more": "icon-navigation-more",
    "news": "icon-navigation-news",
    "offer": "icon-navigation-offer",
    "owners": "icon-navigation-owners",
    "preowned": "icon-navigation-preowned",
    "profile": "icon-navigation-profile",
    "responsibility": "icon-navigation-responsibility",
    "search": "icon-navigation-search",
    "service": "icon-navigation-service",
    "volkswagen-live": "icon-navigation-volkswagen-live"
  },
  "nextstep": {
    "360": "icon-nextstep-360",
    "brochure": "icon-nextstep-brochure",
    "business-customers": "icon-nextstep-business-customers",
    "calculator": "icon-nextstep-calculator",
    "calendar-export": "icon-nextstep-calendar-export",
    "calendar": "icon-nextstep-calendar",
    "car": "icon-nextstep-car",
    "checkmark": "icon-nextstep-checkmark",
    "compare": "icon-nextstep-compare",
    "configure": "icon-nextstep-configure",
    "convince-someone": "icon-nextstep-convince-someone",
    "corporate-topics": "icon-nextstep-corporate-topics",
    "dealer": "icon-nextstep-dealer",
    "download": "icon-nextstep-download",
    "email": "icon-nextstep-email",
    "exclamation-mark": "icon-nextstep-exclamation-mark",
    "favourite": "icon-nextstep-favourite",
    "fax": "icon-nextstep-fax",
    "filter": "icon-nextstep-filter",
    "get-your-volkswagen-1": "icon-nextstep-get-your-volkswagen-1",
    "get-your-volkswagen-2": "icon-nextstep-get-your-volkswagen-2",
    "home": "icon-nextstep-home",
    "image-gallery": "icon-nextstep-image-gallery",
    "image": "icon-nextstep-image",
    "importer": "icon-nextstep-importer",
    "info": "icon-nextstep-info",
    "locate-me": "icon-nextstep-locate-me",
    "mail": "icon-nextstep-mail",
    "more": "icon-nextstep-more",
    "news": "icon-nextstep-news",
    "offer": "icon-nextstep-offer",
    "owners": "icon-nextstep-owners",
    "phone": "icon-nextstep-phone",
    "pin": "icon-nextstep-pin",
    "preowned": "icon-nextstep-preowned",
    "print": "icon-nextstep-print",
    "profile": "icon-nextstep-profile",
    "question-mark": "icon-nextstep-question-mark",
    "responsibility": "icon-nextstep-responsibility",
    "route": "icon-nextstep-route",
    "search": "icon-nextstep-search",
    "service": "icon-nextstep-service",
    "support": "icon-nextstep-support",
    "testdrive": "icon-nextstep-testdrive",
    "upload": "icon-nextstep-upload",
    "video": "icon-nextstep-video",
    "view": "icon-nextstep-view",
    "website": "icon-nextstep-website",
    "write": "icon-nextstep-write"
  },
  "quickaccess": {
    "360": "icon-quickaccess-360",
    "brochure": "icon-quickaccess-brochure",
    "business-customers": "icon-quickaccess-business-customers",
    "calculator": "icon-quickaccess-calculator",
    "calendar": "icon-quickaccess-calendar",
    "car": "icon-quickaccess-car",
    "checkmark": "icon-quickaccess-checkmark",
    "close": "icon-quickaccess-close",
    "compare": "icon-quickaccess-compare",
    "configurator": "icon-quickaccess-configurator",
    "configure": "icon-quickaccess-configure",
    "convince": "icon-quickaccess-convince",
    "corporate-topics": "icon-quickaccess-corporate-topics",
    "dealer": "icon-quickaccess-dealer",
    "download": "icon-quickaccess-download",
    "email": "icon-quickaccess-email",
    "exclamation-mark": "icon-quickaccess-exclamation-mark",
    "favourite": "icon-quickaccess-favourite",
    "fax": "icon-quickaccess-fax",
    "filter": "icon-quickaccess-filter",
    "get-your-volkswagen-1": "icon-quickaccess-get-your-volkswagen-1",
    "get-your-volkswagen-2": "icon-quickaccess-get-your-volkswagen-2",
    "home": "icon-quickaccess-home",
    "image-gallery": "icon-quickaccess-image-gallery",
    "image": "icon-quickaccess-image",
    "importer": "icon-quickaccess-importer",
    "info": "icon-quickaccess-info",
    "locate-me": "icon-quickaccess-locate-me",
    "mail": "icon-quickaccess-mail",
    "more": "icon-quickaccess-more",
    "news": "icon-quickaccess-news",
    "offer": "icon-quickaccess-offer",
    "owners": "icon-quickaccess-owners",
    "phone": "icon-quickaccess-phone",
    "pin": "icon-quickaccess-pin",
    "preowned": "icon-quickaccess-preowned",
    "print": "icon-quickaccess-print",
    "profile": "icon-quickaccess-profile",
    "question-mark": "icon-quickaccess-question-mark",
    "reload": "icon-quickaccess-reload",
    "responsibility": "icon-quickaccess-responsibility",
    "route": "icon-quickaccess-route",
    "search": "icon-quickaccess-search",
    "service": "icon-quickaccess-service",
    "share": "icon-quickaccess-share",
    "social-facebook": "icon-quickaccess-social-facebook",
    "social-googleplus": "icon-quickaccess-social-googleplus",
    "social-twitter": "icon-quickaccess-social-twitter",
    "support": "icon-quickaccess-support",
    "testdrive": "icon-quickaccess-testdrive",
    "trash": "icon-quickaccess-trash",
    "upload": "icon-quickaccess-upload",
    "video": "icon-quickaccess-video",
    "view": "icon-quickaccess-view",
    "website": "icon-quickaccess-website",
    "write": "icon-quickaccess-write",
    "zoom-in": "icon-quickaccess-zoom-in",
    "zoom-out": "icon-quickaccess-zoom-out"
  },
  "share": {
    "facebook": "icon-share-facebook",
    "googleplus": "icon-share-googleplus",
    "instagram": "icon-share-instagram",
    "linkedin": "icon-share-linkedin",
    "odnoklassniki": "icon-share-odnoklassniki",
    "pinterest": "icon-share-pinterest",
    "twitter": "icon-share-twitter",
    "vkontakte": "icon-share-vkontakte",
    "youtube": "icon-share-youtube"
  }
}