<?xml version="1.0" encoding="utf-8"?>
<!-- Generator: Adobe Illustrator 21.0.0, SVG Export Plug-In . SVG Version: 6.00 Build 0)  -->
<svg version="1.1" id="Ebene_1" xmlns="http://www.w3.org/2000/svg" xmlns:xlink="http://www.w3.org/1999/xlink" x="0px" y="0px"
	 viewBox="0 0 500 500" style="enable-background:new 0 0 500 500;" xml:space="preserve">
<g>
	<path d="M274.8,229.4c-7.2-12.9-19.3-33.2-21.5-35.5c-3-2.7-47.6-3-58.9-3c-10.9,0.4-52.5,0.4-55.5,3c-2.3,2.3-12.4,22.3-18.1,35.5
		c-5.7,0-13.2,0.4-15.1,2.2c-3,3-6.8,7.2-4.5,9.8c1.5,1.5,4.9,1.1,4.9,1.1h9.1c-0.7,1.9-1.1,3.4-1.9,5.3c-9.1,29-9.4,34.7-9.4,34.7
		v37.7c0,0,0.4,6.4,6.4,10.6v18.5c0,1.9,1.5,3.8,3.8,3.8h18.1c1.9,0,3.8-1.5,3.8-3.8v-14.7c26.8,0.8,97.8,0.8,124.6,0v14.7
		c0,1.9,1.5,3.8,3.8,3.8h18.1c1.9,0,3.8-1.5,3.8-3.8v-18.1l0,0c6-3.8,6.4-10.6,6.4-10.6V283c0,0-0.4-5.7-9.4-34.7
		c-0.4-1.9-1.1-3.4-1.9-5.3h9.8c0,0,3.4,0.4,4.9-1.1c2.3-2.7-1.1-6.8-4.5-9.8C288.7,229.8,280.4,229.4,274.8,229.4z M147.5,207.1
		c6.8-0.8,20.4-1.1,41.1-1.5c2.3,0,3.8,0,5.3,0s3.4,0,5.7,0c22.6,0.4,37.7,0.8,44.6,1.5c4.9,7.9,15.1,25.3,19.3,33.2H131.3
		C134.7,233.2,143.4,215.5,147.5,207.1z M128.7,289.8L128.7,289.8c-6.8-0.4-12.1-6-12.1-13.2c0-7.2,5.7-13.2,13.2-13.2
		c1.9,0,5.7,1.1,5.7,1.1l15.1,8.7l3.4,16.2h-25.3V289.8z M226,290.2c-7.2,1.5-49.5,1.5-56.6,0c-8.7-1.9-10.6-17.3-10.6-17.3H237
		C236.6,272.8,234.7,288.3,226,290.2z M266.8,289.5L266.8,289.5h-24.9l3.4-16.2l15.1-8.7c0,0,3.8-1.1,5.7-1.1
		c7.2,0,13.2,5.7,13.2,13.2C279.3,283.4,273.6,289,266.8,289.5z"/>
	<path d="M398.9,197.4c2.3-2.7-1.1-6.8-4.5-9.8c-1.9-1.9-10.6-2.3-16.2-2.3c-7.2-12.9-19.3-33.2-21.5-35.5c-3-2.7-47.6-3-58.9-3
		c-10.9,0.4-52.5,0.4-55.5,3c-1.9,1.5-7.9,13.2-13.2,24.2c6.4,0.4,11.7,0.4,15.9,0.8c2.2-4.5,4.5-9.1,6-12.1
		c6.8-0.8,20.4-1.1,41.1-1.5c2.3,0,3.8,0,5.3,0c1.5,0,3.4,0,5.7,0c22.6,0.4,37.7,0.8,44.6,1.5c5.3,7.9,15.1,25.3,19.3,33.2h-91.1
		c3.4,5.3,6.8,11.4,9.4,15.9c8.7,0.8,13.9,3,18.1,7.2c3.4,3.4,5.7,6.4,7.2,9.4h29.8c0,0-2.2,15.5-10.6,17.3
		c-2.7,0.4-9.4,0.8-17.4,1.1c-1.1,3-3,5.7-4.2,6.8c-1.1,1.5-2.7,2.7-4.5,3.8c3,10.2,5.7,20,5.7,24.5v0.4v0.4v7.9
		c21.5,0,41.9-0.4,53.6-0.8v14.7c0,1.9,1.5,3.8,3.8,3.8H385c1.9,0,3.8-1.5,3.8-3.8v-18.1l0,0c6-3.8,6.4-10.6,6.4-10.6v-37.3
		c0,0-0.4-5.7-9.4-34.7c-0.4-1.9-1.1-3.4-1.9-5.3h9.8C394,198.5,397.4,198.9,398.9,197.4z M370.6,245.2L370.6,245.2h-24.9L349,229
		l15.1-8.7c0,0,3.8-1.1,5.7-1.1c7.2,0,13.2,5.7,13.2,13.2C382.7,239.2,377.4,244.9,370.6,245.2z"/>
</g>
</svg>
