<?xml version="1.0" encoding="utf-8"?>
<!-- Generator: Adobe Illustrator 21.0.2, SVG Export Plug-In . SVG Version: 6.00 Build 0)  -->
<svg version="1.1" id="Ebene_1" xmlns="http://www.w3.org/2000/svg" xmlns:xlink="http://www.w3.org/1999/xlink" x="0px" y="0px"
	 viewBox="0 0 500 500" style="enable-background:new 0 0 500 500;" xml:space="preserve">
<g>
	<path d="M178.5,240.9c-1.7-1.7-5-3.3-8.3-3.3h-60c-5,0-10,3.3-10,10v135c0,5,3.3,10,10,10h60c3.3,0,6.7-1.7,8.3-3.3V240.9z"/>
	<path d="M391.9,227.5c-1.7-3.3-3.3-5-6.7-5h-95c0,0,11.7-26.7,11.7-51.7s-18.3-53.3-18.3-53.3s-8.3-10-21.7-10
		c-13.3,0-18.3,11.7-18.3,11.7v53.3c0,0-43.3,73.3-43.3,71.7c0,0,0,0-1.7,0v140l11.7,5h148.3c0,0,15,3.3,33.3-68.3
		C406.9,267.5,396.9,237.6,391.9,227.5z"/>
</g>
</svg>
