<?xml version="1.0" encoding="utf-8"?>
<!-- Generator: Adobe Illustrator 21.0.2, SVG Export Plug-In . SVG Version: 6.00 Build 0)  -->
<svg version="1.1" id="Ebene_1" xmlns="http://www.w3.org/2000/svg" xmlns:xlink="http://www.w3.org/1999/xlink" x="0px" y="0px"
	 viewBox="0 0 500 500" style="enable-background:new 0 0 500 500;" xml:space="preserve">
<path d="M400,117.7c0-5-5-10-10-10H110c-5-1.7-10,3.3-10,10v35L218.3,261v105c0,15,11.7,26.7,26.7,26.7h10c15,0,26.7-11.7,26.7-26.7
	V262.7l118.3-110V117.7z"/>
</svg>
