<?xml version="1.0" encoding="utf-8"?>
<!-- Generator: Adobe Illustrator 21.0.2, SVG Export Plug-In . SVG Version: 6.00 Build 0)  -->
<svg version="1.1" id="Ebene_1" xmlns="http://www.w3.org/2000/svg" xmlns:xlink="http://www.w3.org/1999/xlink" x="0px" y="0px"
	 viewBox="0 0 500 500" style="enable-background:new 0 0 500 500;" xml:space="preserve">
<g>
	<path d="M342.2,100.5c-43.3,5-93.3,46.7-143.3,96.7c-51.7,50-93.3,100-98.3,143.3c-3.3,31.7,33.3,51.7,46.7,58.3
		c1.7,1.7,5,0,6.7-1.7l41.7-56.7c1.7-1.7,1.7-3.3,0-5c-10-10-11.7-13.3-13.3-21.7c-5-20,15-48.3,50-81.7s65-53.3,83.3-50
		c8.3,1.7,15,6.7,21.7,13.3c1.7,1.7,3.3,1.7,5,0l53.3-40c3.3-3.3,5-8.3,3.3-13.3C390.6,128.8,370.6,98.8,342.2,100.5z"/>
</g>
</svg>
