<?xml version="1.0" encoding="utf-8"?>
<!-- Generator: Adobe Illustrator 21.0.0, SVG Export Plug-In . SVG Version: 6.00 Build 0)  -->
<svg version="1.1" id="Ebene_1" xmlns="http://www.w3.org/2000/svg" xmlns:xlink="http://www.w3.org/1999/xlink" x="0px" y="0px"
	 viewBox="0 0 500 500" style="enable-background:new 0 0 500 500;" xml:space="preserve">
<path d="M333.8,180.6c4.8-10.5,7-22.3,3.9-35.8c-4.4-19.6-19.2-36.3-38.8-41.9c-27.5-8.3-55,5.7-66.4,29.7
	c-7.4-8.7-18.4-14.9-31.4-15.3c-17.9-0.9-34.9,10.5-41.5,27.5c-6.1,17-0.9,34.9,10.9,45.8c-17,8.7-29.3,26.2-30.1,47.6
	c-0.9,24,14.4,46.3,36.7,54.6c14.9,5.2,29.7,3.9,42.3-1.7c1.3-6.1,2.7-12.2,4.4-18.8c0.4-0.9,0.4-2.2,0.9-3.1
	c-3.5-3.1-7.4-7.4-11.4-12.2c-17.5-21.9-10.9-51.1-10.9-51.1s3.9,22.3,16.6,36.7c4.4,4.8,8.3,8.3,11.4,10.9
	c21-48.5,50.2-76.8,50.2-76.8c-4.8,6.6-29.7,69-38.8,124c-7.4,44.1-4.4,89.5-3.5,100c0,1.3,1.3,2.2,2.7,2.2h27.5
	c1.7,0,3.1-1.3,2.7-3.1c-2.2-10.9-9.6-48.9-4.8-93.5c2.2,0.4,4.8,1.3,7,1.7c39.7,7,77.7-19.2,85.1-59.4
	C363.1,222.5,353,196.7,333.8,180.6z"/>
</svg>
