<?xml version="1.0" encoding="utf-8"?>
<!-- Generator: Adobe Illustrator 21.0.0, SVG Export Plug-In . SVG Version: 6.00 Build 0)  -->
<svg version="1.1" id="Ebene_1" xmlns="http://www.w3.org/2000/svg" xmlns:xlink="http://www.w3.org/1999/xlink" x="0px" y="0px"
	 viewBox="0 0 500 500" style="enable-background:new 0 0 500 500;" xml:space="preserve">
<g>
	<path d="M318.3,182.7c-1.9-1.9-4.7-1.9-6.5-0.4l-60.8,38L221.3,250l-38.1,60.4c-1.4,1.9-1.4,4.7,0.4,6.5l0.4,0.4
		c1.9,1.9,4.7,1.9,6.5,0.4l60.4-38.1l30.2-29.7l38.1-60.4C320.7,187.8,320.7,185,318.3,182.7L318.3,182.7z M249.6,266.3l-5.6,5.6
		l-0.4,0.4l-40.4,28.3c-2.3,1.4-4.7-1-3.3-3.3l29.3-39.5l0.4-0.4l5.6-5.6c1-1,2.3-1,3.3,0l11.1,11.1
		C250.6,264,250.6,265.3,249.6,266.3z"/>
	<path d="M251,100c-82.6,0-150,67.4-150,150s67.4,150,150,150s150-67.3,150-150S333.6,100,251,100z M251,367
		c-64.6,0-117-52.5-117-117s52.5-117,117-117s117,52.5,117,117S315.6,367,251,367z"/>
</g>
</svg>
