<?xml version="1.0" encoding="UTF-8" standalone="no"?>
<svg
   xmlns:dc="http://purl.org/dc/elements/1.1/"
   xmlns:cc="http://creativecommons.org/ns#"
   xmlns:rdf="http://www.w3.org/1999/02/22-rdf-syntax-ns#"
   xmlns:svg="http://www.w3.org/2000/svg"
   xmlns="http://www.w3.org/2000/svg"
   xmlns:sodipodi="http://sodipodi.sourceforge.net/DTD/sodipodi-0.dtd"
   xmlns:inkscape="http://www.inkscape.org/namespaces/inkscape"
   version="1.1"
   x="0px"
   y="0px"
   viewBox="0 0 500 500"
   style="enable-background:new 0 0 500 500;"
   xml:space="preserve"
   id="svg2"
   inkscape:version="0.91 r13725"
   sodipodi:docname="spare_details.svg"><metadata
     id="metadata10"><rdf:RDF><cc:Work
         rdf:about=""><dc:format>image/svg+xml</dc:format><dc:type
           rdf:resource="http://purl.org/dc/dcmitype/StillImage" /></cc:Work></rdf:RDF></metadata><defs
     id="defs8" /><sodipodi:namedview
     pagecolor="#ffffff"
     bordercolor="#666666"
     borderopacity="1"
     objecttolerance="10"
     gridtolerance="10"
     guidetolerance="10"
     inkscape:pageopacity="0"
     inkscape:pageshadow="2"
     inkscape:window-width="640"
     inkscape:window-height="480"
     id="namedview6"
     showgrid="false"
     inkscape:zoom="0.472"
     inkscape:cx="250"
     inkscape:cy="250"
     inkscape:window-x="0"
     inkscape:window-y="0"
     inkscape:window-maximized="0"
     inkscape:current-layer="svg2" /><path
     d="m 273.02645,224.79419 -168.51972,70.62486 c -3.91906,0 -6.531773,5.33018 -3.91906,9.32782 l 45.7224,21.3207 -75.768554,85.28286 c -2.612709,2.66508 -2.612709,7.99526 0,10.66035 l 15.676253,15.99053 c 2.612708,2.6651 7.838125,2.6651 10.450835,0 l 83.606686,-77.28758 20.90166,46.63906 c 2.61271,2.66509 9.14449,1.33254 9.14449,-3.99763 l 69.23678,-171.89824 c 1.30635,-3.99764 -2.61271,-7.99527 -6.53177,-6.66273 z m -66.62408,-10.66035 48.33511,-85.28285 -48.33511,-85.282853 -95.36387,0 -48.33511,85.282853 48.33511,85.28285 95.36387,0 z M 159.37361,78.214295 c 27.43345,0 48.33512,22.653255 48.33512,49.304145 0,26.65089 -22.20803,49.30415 -48.33512,49.30415 -26.12708,0 -48.33511,-22.65326 -48.33511,-49.30415 -1.30635,-26.65089 20.90167,-49.304145 48.33511,-49.304145 z m 194.64681,137.252085 61.39865,-26.65089 1.30635,-51.96923 -64.01136,27.98343 1.30636,50.63669 z m 5.22541,158.5728 50.94782,-22.65326 1.30636,-53.30178 -53.56053,23.9858 1.30635,51.96924 z m 1.30636,61.29705 23.51438,30.64852 23.51438,-30.64852 1.30634,-55.96688 -48.3351,21.32072 0,34.64616 z m -3.91907,-139.91718 56.17324,-25.31834 1.30636,-53.30178 -58.78595,25.31834 1.30635,53.30178 z m -30.04614,-223.867477 23.51438,11.9929 1.30634,54.634327 66.62408,-29.31598 0,-25.318347 23.51438,-11.9929 0,-29.315979 -114.95918,0 0,29.315979 z"
     id="path4"
     inkscape:connector-curvature="0" /></svg>