<?xml version="1.0" encoding="utf-8"?>
<!-- Generator: Adobe Illustrator 20.1.0, SVG Export Plug-In . SVG Version: 6.00 Build 0)  -->
<svg version="1.1" xmlns="http://www.w3.org/2000/svg" xmlns:xlink="http://www.w3.org/1999/xlink" x="0px" y="0px"
	 viewBox="0 0 500 500" style="enable-background:new 0 0 500 500;" xml:space="preserve">
<g>
	<path d="M473.6,162.5l-42.1-64.5c-0.5-1.5-2-2.3-3.5-1.8c-0.9,0.3-1.5,0.9-1.8,1.8l-44.8,64.5c-1.1,1.5-0.8,3.5,0.7,4.6
		c0.6,0.4,1.3,0.7,2,0.7h31.6c-3.7,30.5-31.4,52.3-61.9,48.7c-25.5-3.1-45.6-23.2-48.7-48.7c-3.5-29.3,16.9-56.2,46.1-60.6
		c5.2-0.9,9-5.3,9.2-10.5V90c-0.1-6-5-10.7-11-10.6c-0.3,0-0.6,0-0.8,0c-42.1,6.2-72.8,43.1-71.1,85.6c3.6,41.5,36.2,74.7,77.7,79
		c44.9,3.1,83.8-30.9,86.9-75.8c0-0.2,0-0.4,0-0.6h27.6C473.6,167.7,474.9,165.1,473.6,162.5z"/>
	<path d="M378.8,281c-2-6.6-5.1-12.9-9.2-18.4h-13.2c-25.4-2.5-49.1-13.6-67.1-31.6H101c-3.2-0.1-5.7-2.7-5.7-5.9
		c0-0.7,0.1-1.3,0.4-2l23.7-46.1c28.2-4.9,56.9-6.7,85.6-5.3c22.4,0,40.8,1.3,54,1.3c-1.1-4.3-1.5-8.7-1.3-13.2v-14.5
		c-14.5-1.3-31.6-1.3-52.7-1.3c-92.2,0-100.1,7.9-104,11.8c-1.3,1-2.2,2.4-2.6,3.9l-29,56.6L62.8,227c2.5-5.1,0.8-11.3-3.9-14.5
		c-6.6-2.6-32.9,1.3-32.9,13.2s30.3,11.8,30.3,11.8h1.3l-1.3,2.6c-3.9,5.3-5.3,7.9-9.2,13.2c-5.9,8-10.3,16.9-13.2,26.3l-1.3,134.3
		c0.3,3.5,3.1,6.3,6.6,6.6h39.5c3.3-0.3,5.6-3.3,5.3-6.5c0,0,0,0,0-0.1c0.1-1,0.6-1.9,1.3-2.6v-23.7h246.2v26.3
		c0.3,3.5,3.1,6.3,6.6,6.6h36.9c3.4,0.2,6.4-2.4,6.6-5.8c0-0.3,0-0.5,0-0.8V410L378.8,281z M293.2,296.8c0,0,51.3-31.6,59.2-15.8
		c4.7,9.4,6.1,20,3.9,30.3l-48.7,7.9l-22.4-2.6L293.2,296.8z M205,290.2c8.7,0,15.8,7.1,15.8,15.8c0,8.7-7.1,15.8-15.8,15.8
		c-8.7,0-15.8-7.1-15.8-15.8c-0.3-8.4,6.3-15.5,14.7-15.8C204.3,290.2,204.6,290.2,205,290.2z M57.5,282.3
		c7.9-15.8,59.2,15.8,59.2,15.8l9.2,19.7l-23.7,3.9l-48.7-9.2C51.4,302.3,52.8,291.6,57.5,282.3z"/>
</g>
</svg>
