<svg width="27" height="30" viewBox="0 0 27 30" xmlns="http://www.w3.org/2000/svg">
  <title>
    CD9CF465-3B09-4923-BEEB-43ACBC7A9B3C
  </title>
  <g fill="#bdc3c6" fill-rule="evenodd">
    <path d="M12.926 1.176h1.148c.476 0 .862.396.862.883v26.47c0 .486-.386.882-.862.882h-1.148c-.476 0-.862-.396-.862-.883V2.06c0-.488.386-.884.862-.884"/>
    <path d="M5.17 25v-1.176c0-.488.386-.883.862-.883h14.936c.476 0 .862.396.862.884V25c0 .487-.386.882-.862.882H6.032c-.476 0-.862-.395-.862-.882"/>
    <path d="M2.388 21.176c-.047 0-.09.044-.09.092v6.287c0 .05.043.092.09.092H5.08c.048 0 .09-.043.09-.092v-6.287c0-.048-.042-.092-.09-.092H2.388zM5.08 30H2.388C1.07 30 0 28.904 0 27.555v-6.287c0-1.348 1.07-2.444 2.388-2.444H5.08c1.317 0 2.388 1.096 2.388 2.444v6.287c0 1.35-1.07 2.445-2.388 2.445zM21.92 21.176c-.048 0-.09.044-.09.092v6.287c0 .05.042.092.09.092h2.692c.048 0 .09-.043.09-.092v-6.287c0-.048-.042-.092-.09-.092H21.92zM24.612 30H21.92c-1.317 0-2.388-1.096-2.388-2.445v-6.287c0-1.348 1.07-2.444 2.388-2.444h2.692c1.317 0 2.388 1.096 2.388 2.444v6.287C27 28.905 25.93 30 24.612 30zM5.17 6.176V5c0-.487.386-.882.862-.882h14.936c.476 0 .862.395.862.882v1.176c0 .488-.386.883-.862.883H6.032c-.476 0-.862-.396-.862-.884"/>
    <path d="M2.388 2.353c-.047 0-.09.043-.09.092v6.287c0 .048.043.092.09.092H5.08c.048 0 .09-.044.09-.092V2.445c0-.05-.042-.092-.09-.092H2.388zm2.692 8.823H2.388C1.07 11.176 0 10.08 0 8.732V2.445C0 1.095 1.07 0 2.388 0H5.08c1.317 0 2.388 1.096 2.388 2.445v6.287c0 1.348-1.07 2.444-2.388 2.444zM21.92 2.353c-.048 0-.09.043-.09.092v6.287c0 .048.042.092.09.092h2.692c.048 0 .09-.044.09-.092V2.445c0-.05-.042-.092-.09-.092H21.92zm2.692 8.823H21.92c-1.317 0-2.388-1.096-2.388-2.444V2.445c0-1.35 1.07-2.445 2.388-2.445h2.692C25.93 0 27 1.096 27 2.445v6.287c0 1.348-1.07 2.444-2.388 2.444z"/>
  </g>
</svg>
