<?xml version="1.0" encoding="utf-8"?>
<!-- Generator: Adobe Illustrator 21.0.2, SVG Export Plug-In . SVG Version: 6.00 Build 0)  -->
<svg version="1.1" id="Ebene_1" xmlns="http://www.w3.org/2000/svg" xmlns:xlink="http://www.w3.org/1999/xlink" x="0px" y="0px"
	 viewBox="0 0 833.3 500" style="enable-background:new 0 0 833.3 500;" xml:space="preserve">
<g>
	<path d="M417.4,10c-133.3,0-243.3,106.7-243.3,240s108.3,240,241.7,240s243.3-108.3,243.3-240C660.8,116.7,550.8,10,417.4,10z
		 M230.8,250c0-68.3,38.3-130,95-161.7l5-1.7L317.4,105c0,0,13.3,15,11.7,18.3c-1.7,1.7-8.3,8.3-8.3,8.3l-20,30l11.7,13.3
		c0,0,3.3,30,3.3,31.7s11.7,16.7,11.7,16.7l-8.3-38.3l16.7,51.7l15,16.7l13.3,3.3l23.3,15l11.7,16.7l15,3.3l13.3,3.3l-10,16.7
		l-16.7,30l16.7,70c0,0-8.3,15-13.3,25C307.4,428.3,230.8,348.3,230.8,250z M424.1,435l21.7-13.3c0,0,58.3-38.3,63.3-43.3
		c5-6.7,8.3-26.7,8.3-26.7l-21.7-15v-15l-48.3-40l-25,5h-18.3l-3.3-26.7h-13.3l6.7-23.3h-8.3l-5,10h-13.3c0,0-8.3-10-6.7-15
		c0-3.3,6.7-25,6.7-25h23.3h16.7l6.7,20h3.3V200c0,0,21.7-33.3,23.3-35c1.7,0,25-8.3,25-8.3l21.7-15l-13.3-25c0,0-30-10-31.7-10
		c-1.7,0-6.7,8.3-6.7,8.3l-6.7,15l-8.3-15l-25-10l8.3-6.7l15-3.3l38.3,10V90c0,0-3.3-6.7-8.3-15c6.7,1.7,15,3.3,15,3.3
		c3.3,0,13.3,21.7,15,21.7c1.7,0,18.3,15,18.3,15l3.3-16.7l6.7-8.3l-1.7-3.3c18.3,10,33.3,21.7,46.7,35l0,0v15l11.7,6.7l3.3-3.3
		c5,8.3,11.7,16.7,15,25l-8.3,3.3l3.3,25l15,5c0,0,0-6.7,0-8.3c1.7,5,3.3,8.3,3.3,13.3h-8.3V235l-5,16.7v16.7l-5,13.3l3.3,31.7
		l11.7-3.3C570.8,380,504.1,431.7,424.1,435z"/>
	<polygon points="407.4,230 410.8,235 429.1,251.7 429.1,240 417.4,230 	"/>
	<path d="M442.4,241.7c0,0-10,8.3-8.3,8.3c1.7,0,13.3,0,13.3,0l10,3.3l-5-11.7H442.4z"/>
</g>
</svg>
