<?xml version="1.0" encoding="utf-8"?>
<!-- Generator: Adobe Illustrator 21.0.2, SVG Export Plug-In . SVG Version: 6.00 Build 0)  -->
<svg version="1.1" id="Ebene_1" xmlns="http://www.w3.org/2000/svg" xmlns:xlink="http://www.w3.org/1999/xlink" x="0px" y="0px"
	 viewBox="0 0 500 500" style="enable-background:new 0 0 500 500;" xml:space="preserve">
<path d="M412.1,231.6c-3.8-14.4-6.3-23.8-10-38.1l25-55c-16.9-20-19.4-22.5-36.3-42.5l-58.1,15.6c-13.1-6.3-22.5-10-35.6-16.3
	L269.6,41c-26.2,0.6-30,0.6-55.6,1.9l-23.8,55.6c-13.1,6.9-21.3,11.3-34.4,18.1l-59.4-12.5c-15.6,21.3-17.5,23.8-33.1,45l28.8,53.8
	c-2.5,14.4-4.4,23.8-7.5,38.1l-46.3,38.8c6.9,25.6,7.5,28.8,14.4,54.4l59.4,11.3c9.4,11.3,15.6,18.8,25.6,30l1.9,60.6
	c23.8,10.6,27.5,11.9,51.3,23.1l45.6-39.4c14.4-0.6,24.4-0.6,38.8-1.3l48.1,36.9c23.1-11.9,26.3-13.8,49.4-25.6l-3.1-60.6
	c8.8-11.9,14.4-19.4,23.1-31.3l58.7-14.4c5-25.6,5.6-29.4,10.6-55L412.1,231.6z M248.9,349.1c-55,0-99.4-44.4-99.4-99.4
	s44.4-99.4,99.4-99.4s99.4,44.4,99.4,99.4S304,349.1,248.9,349.1z"/>
</svg>
