<?xml version="1.0" encoding="utf-8"?>
<!-- Generator: Adobe Illustrator 21.0.2, SVG Export Plug-In . SVG Version: 6.00 Build 0)  -->
<svg version="1.1" id="Ebene_1" xmlns="http://www.w3.org/2000/svg" xmlns:xlink="http://www.w3.org/1999/xlink" x="0px" y="0px"
	 viewBox="0 0 500 500" style="enable-background:new 0 0 500 500;" xml:space="preserve">
<g>
	<path d="M336,430.5c1.9,6.9-1.9,14.4-8.8,16.3c-20,6.3-45.6,10.6-76.3,10.6c-124.4,0-203.1-71.3-203.1-203.7
		c0-110.6,80-211.3,215.6-211.3c119.4,0,188.7,81.9,188.7,181.3c0,92.5-53.1,142.5-104.4,142.5c-32.5,0-50-12.5-60-31.3h-1.3
		c-16.9,12.5-37.5,25-65,25c-45,0-76.3-34.4-76.3-85c-0.6-61.9,36.3-130.6,101.3-130.6c26.9,0,43.1,12.5,55.6,23.1h0.6l11.3-16.9
		h23.1c7.5,0,13.8,6.9,11.9,14.4l-20.6,115c-5.6,29.4-0.6,47.5,23.1,47.5c28.1,0,57.5-31.9,57.5-102.5
		c0-75.6-43.1-142.5-146.3-142.5C149.7,82.4,91,166.1,92.2,256.8c0.6,96.3,76.9,169.4,174.4,162.5c18.8-1.2,35.6-5,50-8.8
		c7.5-1.9,15,2.5,16.9,9.4L336,430.5z M291.6,202.4c-8.8-8.1-22.5-12.5-35.6-12.5c-35,0-56.9,38.1-56.9,83.1
		c0,25,10.6,41.9,35.6,41.9c13.8,0,30-5.6,40.6-13.8L291.6,202.4z"/>
</g>
</svg>
