<?xml version="1.0" encoding="utf-8"?>
<!-- Generator: Adobe Illustrator 21.0.2, SVG Export Plug-In . SVG Version: 6.00 Build 0)  -->
<svg version="1.1" id="Ebene_1" xmlns="http://www.w3.org/2000/svg" xmlns:xlink="http://www.w3.org/1999/xlink" x="0px" y="0px"
	 viewBox="0 0 500 500" style="enable-background:new 0 0 500 500;" xml:space="preserve">
<g>
	<path d="M376.9,91.3c0-4.4-3.1-7.5-7.5-7.5H130.6c-4.4,0-7.5,3.1-7.5,7.5v112.5h253.7C376.9,203.7,376.9,91.3,376.9,91.3z"/>
	<path d="M440,230H60c-6.3,0-11.3,5-11.3,11.2V405c0,6.3,5,11.3,11.3,11.3h72.5h243.7H440c6.3,0,11.3-5,11.3-11.3V241.2
		C451.2,235,446.2,230,440,230z M365,359.4c-0.6,3.1-3.8,5-6.9,4.4l-41.9-6.3c-1.3,0-2.5-1.3-2.5-2.5c0-6.3-1.3-11.3-3.8-15.6
		c-6.3-9.4-28.8-15-60-15c-30.6,0-52.5,3.1-60,14.4c-3.1,4.4-3.8,6.9-3.8,15.6c0,1.3-1.3,2.5-2.5,2.5l-44.4,6.3
		c-1.9,0-3.1-0.6-3.8-2.5c-3.1-8.8-10-35,5-47.5c21.9-16.9,63.1-19.4,109.4-19.4c45.6,0,86.9,3.1,108.8,21.3
		C373.1,326.2,368.1,349.4,365,359.4z"/>
</g>
</svg>
