<?xml version="1.0" encoding="utf-8"?>
<!-- Generator: Adobe Illustrator 21.0.2, SVG Export Plug-In . SVG Version: 6.00 Build 0)  -->
<svg version="1.1" id="Ebene_1" xmlns="http://www.w3.org/2000/svg" xmlns:xlink="http://www.w3.org/1999/xlink" x="0px" y="0px"
	 viewBox="0 0 500 500" style="enable-background:new 0 0 500 500;" xml:space="preserve">
<g>
	<path d="M470.9,359.5v-26.9c0,0-3.7-12.5-20-30c-10-10.6-15-14.4-15-14.4l4.4-3.8V282c0,0-61.9-13.1-152.5-11.3
		s-139.4,48.1-139.4,48.1s-70.6,6.3-103.1,22.5C31.5,348.2,26.5,372,26.5,372l-5,8.1v31.3c0,0,13.7,9.4,46.2,9.4c0.6,0,1.9,0,3.1,0
		c4.4,13.8,17.5,23.8,32.5,23.8c15.6,0,28.1-10,32.5-23.8c68.1,0,169.4,0,237.5,0c4.4,13.8,17.5,23.8,32.5,23.8s28.1-10,32.5-23.8
		c3.8,0,6.3,0,6.3,0s33.8-3.1,33.8-22.5c0-18.8,0-26.3,0-26.3L470.9,359.5z"/>
	<path d="M24.6,231.3c5,18.8,5.6,21.3,10.6,40l44.4,8.1c6.3,7.5,11.3,13.1,16.9,20c16.9-3.1,31.9-5,40.6-5.6
		c5-3.7,12.5-8.8,22.5-14.4c-30-9.4-51.2-37.5-51.2-70c0-40.6,33.1-73.7,73.7-73.7s73.7,33.1,73.7,73.7c0,15-4.4,28.7-11.9,40.6
		c13.1-2.5,27.5-3.7,43.1-4.4c6.9,0,13.8,0,20.6,0c9.4,0,18.8,0,27.5,0.6c1.3-6.3,2.5-11.9,4.4-23.1l-36.3-26.9
		c-2.5-10.6-4.4-17.5-7.5-28.1l18.1-40.6c-12.5-15-14.4-16.9-26.9-31.9L244,107.6c-10-4.4-16.3-7.5-26.3-11.9l-20.6-40
		c-19.4,0.6-21.9,0.6-41.3,1.3l-18.1,40c-9.4,5-16.3,8.1-25.6,13.1l-43.7-9.4c-11.3,15.6-13.1,17.5-24.4,33.1l21.2,40
		c-1.9,10.6-3.1,17.5-5.6,28.1L24.6,231.3z"/>
</g>
</svg>
