<?xml version="1.0" encoding="utf-8"?>
<!-- Generator: Adobe Illustrator 21.0.2, SVG Export Plug-In . SVG Version: 6.00 Build 0)  -->
<svg version="1.1" id="Ebene_1" xmlns="http://www.w3.org/2000/svg" xmlns:xlink="http://www.w3.org/1999/xlink" x="0px" y="0px"
	 viewBox="0 0 500 500" style="enable-background:new 0 0 500 500;" xml:space="preserve">
<path d="M390.5,125.8c1.3-5.6,1.9-11.2,1.9-16.9c0-44.4-36.3-80-80-80c-38.8,0-71.3,27.5-78.8,63.8c-18.1,2.5-32.5,17.5-50.6,45.6
	c-28.8,45-30,68.1,1.9,93.8L91.2,393.3l6.3,23.1l18.8-5l9.4-13.1l16.3-9.4v-18.1l20.6-6.3v-18.8l20.6-6.3v-18.1l15.6-8.8v-18.1
	l20.6-6.3l18.8-25c33.8,13.8,53.7,1.9,80.6-41.3c34.4-53.8,29.4-76.3-25-110c-14.4-9.4-26.9-15.6-37.5-18.8
	c6.3-25,29.4-43.8,56.3-43.8c31.9,0,58.1,26.2,58.1,58.1c0,2.5,0,5-0.6,6.9c-9.4-2.5-20.6-3.8-35-4.4c13.8,11.9,25,26.2,29.4,43.8
	c6.3,28.8-7.5,56.2-24.4,81.9c-11.9,18.8-25.6,36.9-43.1,48.1l-0.6,170l16.9,16.9l13.8-13.8l1.9-16.2l9.4-15.6l-9.4-15.6l15-15.6
	l-9.4-16.3l15-15.6l-9.4-16.3l9.4-15.6l-9.4-15.6l14.4-15.6l3.7-31.3c37.5-2.5,48.1-23.1,50.6-73.1
	C409.9,158.9,405.5,137.7,390.5,125.8z M284.3,155.2c3.1,12.5-3.8,25-16.3,28.1c-11.9,3.1-25-3.8-28.1-16.3
	c-1.9-6.3-0.6-12.5,2.5-18.1c3.7,6.9,8.8,13.1,15,18.8c1.9,1.9,5,3.1,7.5,3.1c3.1,0,5.6-1.3,8.1-3.8c4.4-4.4,3.7-11.2-0.6-15.6
	c-3.8-3.8-7.5-8.1-10-13.1C272.4,138.3,281.8,145.2,284.3,155.2z"/>
</svg>
