<?xml version="1.0" encoding="utf-8"?>
<!-- Generator: Adobe Illustrator 21.0.0, SVG Export Plug-In . SVG Version: 6.00 Build 0)  -->
<svg version="1.1" id="Ebene_1" xmlns="http://www.w3.org/2000/svg" xmlns:xlink="http://www.w3.org/1999/xlink" x="0px" y="0px"
	 viewBox="0 0 500 500" style="enable-background:new 0 0 500 500;" xml:space="preserve">
<g>
	<path d="M376.9,115c0-4.4-3.1-7.5-7.5-7.5H130.6c-4.4,0-7.5,3.1-7.5,7.5v43.1h253.7C376.9,158.1,376.9,115,376.9,115z"/>
	<polygon points="141.2,366.3 141.2,366.3 141.2,392.5 361.9,392.5 362.5,392.5 362.5,313.1 141.2,313.1 	"/>
	<path d="M440,180.6H60c-6.3,0-11.3,5-11.3,11.3v163.8c0,6.3,5,11.3,11.3,11.3h58.8v-53.1c0-12.5,10-21.9,21.9-21.9h221.9
		c12.5,0,21.9,10,21.9,21.9V367H440c6.3,0,11.3-5,11.3-11.3V191.3C451.2,185,446.3,180.6,440,180.6z M130.6,244.4H98.7
		c-8.8,0-15.6-6.9-15.6-15.6c0-8.8,6.9-15.6,15.6-15.6h31.9c8.8,0,15.6,6.9,15.6,15.6S139.4,244.4,130.6,244.4z"/>
</g>
</svg>
