<?xml version="1.0" encoding="utf-8"?>
<!-- Generator: Adobe Illustrator 21.0.2, SVG Export Plug-In . SVG Version: 6.00 Build 0)  -->
<svg version="1.1" id="Ebene_1" xmlns="http://www.w3.org/2000/svg" xmlns:xlink="http://www.w3.org/1999/xlink" x="0px" y="0px"
	 viewBox="0 0 500 500" style="enable-background:new 0 0 500 500;" xml:space="preserve">
<g>
	<g>
		<path d="M211.3,300l-2.5-65.6c46.9-15,80-37.5,80-70c0-21.3-16.9-40.6-47.5-40.6c-25,0-43.1,10.6-60,24.4
			c-8.7,6.9-21.2,5.6-28.1-3.1l-15-19.4c-6.3-8.1-5-20,2.5-26.2c22.5-18.8,58.1-38.8,100-38.8c76.9,0,125,37.5,125,100
			c0,59.4-53.1,92.5-89.4,109.4l-4.4,31.9c-1.3,6.9-7.5,11.3-14.4,11.3h-31.9C218.1,313.8,211.9,307.5,211.3,300z"/>
	</g>
	<circle cx="241.3" cy="396.3" r="43.1"/>
</g>
</svg>
