<?xml version="1.0" encoding="utf-8"?>
<!-- Generator: Adobe Illustrator 21.0.2, SVG Export Plug-In . SVG Version: 6.00 Build 0)  -->
<svg version="1.1" id="Ebene_1" xmlns="http://www.w3.org/2000/svg" xmlns:xlink="http://www.w3.org/1999/xlink" x="0px" y="0px"
	 viewBox="0 0 500 500" style="enable-background:new 0 0 500 500;" xml:space="preserve">
<g>
	<path d="M250,56.3C142.5,56.3,55,143.1,55,250s87.5,193.8,195,193.8S445,356.9,445,250S357.5,56.3,250,56.3z M104.4,287.5
		c-1.9-6.9,3.1-13.1,10-13.8c26.9-1.3,64.4,0.6,81.9,21.3c20,23.1,23.8,63.8,23.8,86.9c0,7.5-6.9,12.5-13.8,10.6
		C156.3,377.5,117.5,338.1,104.4,287.5z M298.8,295.6c18.8-21.9,60-23.1,86.9-20.6c6.9,0.6,11.2,6.9,10,13.8
		c-13.8,51.9-55,92.5-106.9,106.3c-7.5,1.3-13.8-4.4-13.8-11.3C275,360.6,278.1,318.8,298.8,295.6z M250,100.6
		c61.9,0,115.6,37.5,138.1,90.6c3.1,6.9-2.5,14.4-10,13.8c-31.9-4.4-78.1-8.8-131.9-8.8c-51.3,0-94.4,4.4-124.4,8.8
		c-7.5,1.3-13.1-6.3-10-13.8C135,138.1,188.1,100.6,250,100.6z"/>
</g>
</svg>
