<?xml version="1.0" encoding="utf-8"?>
<!-- Generator: Adobe Illustrator 21.0.2, SVG Export Plug-In . SVG Version: 6.00 Build 0)  -->
<svg version="1.1" id="Ebene_1" xmlns="http://www.w3.org/2000/svg" xmlns:xlink="http://www.w3.org/1999/xlink" x="0px" y="0px"
	 viewBox="0 0 500 500" style="enable-background:new 0 0 500 500;" xml:space="preserve">
<path d="M438.7,120H61.3c-5.6,0-10,4.4-10,10v240c0,5.6,4.4,10,10,10h377.5c5.6,0,10-4.4,10-10V130C448.8,124.4,444.4,120,438.7,120
	z M210,325V175l110,75L210,325z"/>
</svg>
