<?xml version="1.0" encoding="UTF-8"?>
<svg width="500px" height="500px" viewBox="0 0 500 500" version="1.1" xmlns="http://www.w3.org/2000/svg" xmlns:xlink="http://www.w3.org/1999/xlink">
    <!-- Generator: Sketch 42 (36781) - http://www.bohemiancoding.com/sketch -->
    <title>ic/Airbag</title>
    <desc>Created with Sketch.</desc>
    <defs></defs>
    <g id="Master-UI-1024px" stroke="none" stroke-width="1" fill="none" fill-rule="evenodd">
        <g id="Master-UI-1024px-Iconography" transform="translate(-146.000000, -70016.000000)">
            <g id="Иконки" transform="translate(146.000000, 341.000000)">
                <g id="ic/Airbag" transform="translate(0.000000, 69675.000000)">
                    <rect id="Container" x="0" y="0" width="500" height="500"></rect>
                    <path d="M307.731116,117.158493 C331.593939,117.158493 350.933481,136.47324 350.933481,160.295431 C350.933481,180.513675 336.951515,197.338788 318.174871,202.016892 C314.807539,202.860155 311.349741,203.43237 307.731116,203.43237 C304.735698,203.43237 301.810643,203.121166 298.986105,202.538912 C279.324908,198.503294 264.538803,181.126045 264.538803,160.295431 C264.538803,136.47324 283.878344,117.158493 307.731116,117.158493 Z M332.565942,347.307161 C334.586341,349.32497 334.586341,352.718101 332.565942,354.73591 L326.273555,361.030269 C325.760916,361.532211 325.177916,361.903649 324.534605,362.15462 C324.323518,362.234931 324.082276,362.224892 323.861138,362.275086 C323.418862,362.385514 322.986637,362.526057 322.544361,362.526057 C322.081981,362.526057 321.649756,362.385514 321.20748,362.265047 C320.986341,362.214853 320.755152,362.224892 320.544065,362.15462 C319.910806,361.89361 319.327805,361.522172 318.825218,361.030269 L308.049756,350.268622 L298.591072,340.822064 L293.555152,335.7926 L291.564908,333.614169 C292.067494,333.041955 292.56003,332.46974 293.042513,331.907565 C292.56003,332.46974 292.037339,333.011838 291.544804,333.584053 L249.669268,287.626197 L242.582794,279.846089 L233.546282,269.947782 C231.576142,267.980168 231.525883,264.526803 233.546282,262.508995 L239.83867,256.224674 C240.351308,255.722732 240.944361,255.341256 241.57762,255.080246 C242.220931,254.839313 242.894398,254.708808 243.567864,254.708808 C244.924848,254.708808 246.281833,255.210751 247.297058,256.224674 L252.875772,262.358412 L259.962247,270.138521 L303.436009,317.823058 C303.164612,318.234651 302.913319,318.646244 302.641922,319.037759 C302.913319,318.646244 303.184715,318.24469 303.456112,317.843136 L307.285824,322.059453 L310.532535,325.302002 L321.79048,336.545514 L332.565942,347.307161 Z M337.660163,224.703689 C342.545307,230.064435 345.520621,235.78658 345.962897,242.251599 C346.566001,251.095826 342.414634,261.335453 331.558758,274.124948 C330.111308,275.821514 328.694013,277.638545 327.316925,279.545927 C326.834442,280.208491 326.372062,280.941327 325.889579,281.61393 C324.994974,282.908942 324.090318,284.183876 323.215817,285.53912 C322.632816,286.422539 322.059867,287.356152 321.49697,288.269688 C320.712934,289.494427 319.93895,290.699089 319.175018,291.963984 C318.471397,293.128491 317.757724,294.343192 317.033999,295.527776 C316.360532,296.672205 315.666962,297.806595 314.983444,298.971102 C313.767184,301.019027 312.550924,303.097069 311.31456,305.175111 C310.731559,306.128802 310.148559,307.092531 309.565558,308.0663 C309.374575,308.377504 309.17354,308.698747 308.972506,309.009952 L265.297709,261.064404 L287.160237,223.930698 C287.160237,223.930698 287.35122,223.709843 287.522099,223.529144 C287.592461,223.448833 287.682927,223.348444 287.783444,223.248056 C288.115152,222.886657 288.56748,222.42487 289.170584,221.852656 L289.240946,221.782384 C289.78374,221.250325 290.47731,220.637955 291.221138,219.98543 C291.412121,219.824808 291.613156,219.644109 291.814191,219.473448 C292.668588,218.76069 293.6034,218.017815 294.64878,217.264901 C294.729194,217.214707 294.809608,217.154474 294.890022,217.094241 C295.854989,216.411599 296.910421,215.738996 298.016112,215.086471 C298.307613,214.905772 298.599113,214.74515 298.910717,214.564451 C300.147081,213.881809 301.433703,213.219245 302.800739,212.667108 C302.941463,212.606875 303.092239,212.56672 303.222912,212.506486 C304.469327,212.014583 305.786105,211.613029 307.122986,211.291786 C307.484848,211.201436 307.846711,211.111086 308.208574,211.040814 C309.716334,210.739649 311.244198,210.548911 312.822321,210.528833 C313.465632,210.528833 314.118995,210.609144 314.772358,210.659338 C315.284996,210.689455 315.797635,210.689455 316.330377,210.769765 C317.033999,210.880193 317.747672,211.101047 318.461345,211.271708 C318.963932,211.402213 319.456467,211.472485 319.959054,211.633106 C320.743089,211.904155 321.547228,212.285632 322.351367,212.64703 C322.783592,212.837768 323.215817,212.978312 323.648041,213.199167 C324.884405,213.861731 326.13082,214.634723 327.367184,215.568336 C331.347672,218.549874 334.815521,221.571568 337.660163,224.703689 Z M244.337827,296.682244 L284.424154,340.682524 C283.579808,341.425399 282.745514,342.168274 281.881064,342.870993 C280.936201,343.633946 279.951131,344.336665 278.966061,345.039385 C277.86037,345.832454 276.724523,346.605445 275.54847,347.328242 C274.513141,347.96069 273.447657,348.542943 272.362069,349.125197 C271.145809,349.757644 269.909446,350.370014 268.632875,350.922151 C267.497029,351.414054 266.331027,351.865803 265.124819,352.277395 C263.808041,352.749221 262.451057,353.170853 261.053865,353.532252 C259.80745,353.863534 258.53088,354.15466 257.224154,354.395593 C255.776704,354.666642 254.278995,354.877458 252.751131,355.02804 C251.384095,355.178623 249.986903,355.289051 248.559557,355.339245 C246.137088,355.429594 243.694516,355.46975 241.091116,355.268973 C188.319497,351.092811 180.780695,349.105119 180.780695,349.105119 L168.055196,384.813308 C167.592816,386.680535 166.969608,388.46745 166.165469,390.164016 L166.145366,390.194132 C161.511515,399.931817 151.650761,406.718079 140.141523,406.718079 C124.20952,406.718079 111.303089,393.828196 111.303089,377.916618 C111.303089,371.451599 113.494368,365.548755 117.09289,360.750185 L135.43731,307.443891 C135.43731,307.443891 135.578034,307.142726 135.698655,306.861638 C135.738862,306.771288 135.779069,306.680939 135.839379,306.570511 C136.050466,306.128802 136.392225,305.496354 136.804346,304.783596 C136.88476,304.633013 136.975225,304.48243 137.065691,304.331848 C137.528071,303.558856 138.111072,302.675437 138.79459,301.731786 C138.915211,301.571164 139.045883,301.410542 139.166504,301.249921 C139.930436,300.235997 140.794885,299.181918 141.840266,298.1178 C141.880473,298.077644 141.930732,298.02745 141.970939,297.987294 C142.986164,296.953293 144.152166,295.949408 145.428736,294.975639 C145.639823,294.825057 145.810702,294.674474 146.021789,294.523891 C147.328514,293.5702 148.796068,292.706859 150.374191,291.923829 C150.695846,291.783285 150.997398,291.632702 151.319054,291.48212 C152.967539,290.739245 154.756748,290.116836 156.706785,289.64501 C157.028441,289.574738 157.390303,289.514505 157.72201,289.444233 C159.812772,289.012563 162.034205,288.731475 164.486829,288.721436 C165.461848,288.721436 166.51728,288.811786 167.552609,288.892096 C168.115506,288.932252 168.638197,288.922213 169.201094,288.982446 C170.85963,289.173184 172.588529,289.464311 174.397842,289.875904 C203.718758,296.571817 244.06643,297.15407 244.06643,297.15407 L244.337827,296.682244 Z M122.814339,237.449013 C99.7254989,220.563667 87,199.130723 87,177.075369 C87,155.040093 99.7254989,133.59711 122.814339,116.711764 C143.118847,101.864305 168.388914,93 190.432373,93 C212.616556,93 229.000887,101.934577 239.153141,119.552758 C247.104065,133.356177 250.973984,152.179021 250.973984,177.075369 C250.973984,201.991795 247.104065,220.814639 239.153141,234.608019 C229.000887,252.2262 212.616556,261.150738 190.432373,261.150738 C168.388914,261.150738 143.118847,252.296472 122.814339,237.449013 Z M413.637221,207.723978 C414.682602,210.384274 413.335669,213.496317 410.671959,214.540357 L355.548234,238.151733 C354.37218,231.355431 351.276245,225.482704 347.346016,220.553629 L403.555329,196.480466 C406.158729,195.456503 409.335078,196.791671 410.39051,199.451966 L413.637221,207.723978 Z" id="Combined-Shape" fill="#000000"></path>
                </g>
            </g>
        </g>
    </g>
</svg>