<?xml version="1.0" encoding="UTF-8"?>
<svg width="500px" height="500px" viewBox="0 0 500 500" version="1.1" xmlns="http://www.w3.org/2000/svg" xmlns:xlink="http://www.w3.org/1999/xlink">
    <!-- Generator: Sketch 42 (36781) - http://www.bohemiancoding.com/sketch -->
    <title>ic/BodySUV</title>
    <desc>Created with Sketch.</desc>
    <defs></defs>
    <g id="Master-UI-1024px" stroke="none" stroke-width="1" fill="none" fill-rule="evenodd">
        <g id="Master-UI-1024px-Iconography" transform="translate(-146.000000, -73256.000000)">
            <g id="Иконки" transform="translate(146.000000, 341.000000)">
                <g id="ic/BodySUV" transform="translate(0.000000, 72915.000000)">
                    <rect id="Container" x="0" y="0" width="500" height="500"></rect>
                    <path d="M450.668958,190.466116 L444.712979,190.466116 C442.639518,190.460056 440.637273,191.220002 439.092547,192.599334 C437.405571,190.201227 435.570486,187.910207 433.597947,185.739573 C424.873696,175.700899 410.193465,161.563099 410.193465,161.563099 L414.387817,158.216874 L414.387817,156 L274.506194,156 C235.779554,156.387802 199.200562,173.807886 174.554797,203.600048 C174.554797,203.600048 112.268677,208.159279 87.5220028,214.433451 C63.6561426,220.456655 59.4617911,232.252098 59.4617911,232.252098 C45.9140356,238.024336 48.388703,255.592016 48.388703,255.592016 L40,262.284466 L40,294.240912 C40,294.240912 51.9958454,303.108408 81.4401931,303.108408 L88.5705906,303.108408 C92.7091786,318.603938 106.779315,329.38724 122.859414,329.38724 C138.939513,329.38724 153.00965,318.603938 157.148238,303.108408 L335.408178,303.108408 C339.591975,318.722199 353.852139,329.525186 370.057601,329.357564 C386.263062,329.189942 400.295462,318.094308 404.153599,302.397335 C411.074279,301.518951 420.259909,300.096806 420.259909,300.096806 C420.259909,300.096806 450.668958,296.792409 450.668958,280.061285 L450.668958,256.84685 L446.810154,250.656334 L450.668958,250.656334 C455.30191,250.656334 459.057661,246.910945 459.057661,242.290772 L459.057661,198.998989 C459.102745,196.751458 458.238881,194.580408 456.660781,192.975187 C455.082681,191.369965 452.923156,190.465666 450.668958,190.466116 Z" id="Shape" fill="#010101" fill-rule="nonzero"></path>
                </g>
            </g>
        </g>
    </g>
</svg>