<?xml version="1.0" encoding="UTF-8"?>
<svg width="500px" height="500px" viewBox="0 0 500 500" version="1.1" xmlns="http://www.w3.org/2000/svg" xmlns:xlink="http://www.w3.org/1999/xlink">
    <!-- Generator: Sketch 42 (36781) - http://www.bohemiancoding.com/sketch -->
    <title>ic/BodyUniversal</title>
    <desc>Created with Sketch.</desc>
    <defs></defs>
    <g id="Master-UI-1024px" stroke="none" stroke-width="1" fill="none" fill-rule="evenodd">
        <g id="Master-UI-1024px-Iconography" transform="translate(-146.000000, -71096.000000)">
            <g id="Иконки" transform="translate(146.000000, 341.000000)">
                <g id="ic/BodyUniversal" transform="translate(0.000000, 70755.000000)">
                    <rect id="Container" x="0" y="0" width="500" height="500"></rect>
                    <path d="M478.061345,251.8029 L478.061345,227.517232 C471.032397,217.814314 463.354622,208.597726 455.080613,199.930598 C450.013333,194.091898 443.622532,189.548586 436.441211,186.679582 L440.876917,183.378618 L440.876917,181.209412 C407.702083,175.03129 374.061144,171.686811 340.318521,171.212205 C328.615808,170.929265 282.040897,170.929265 268.875344,171.212205 C186.059772,173.428567 141.891467,214.454843 141.891467,214.454843 C141.891467,214.454843 60.8218639,219.925013 30.9988203,234.307787 C18.8714117,240.768247 14.4357059,261.611481 14.4357059,261.611481 L10,269.48664 L10,298.157876 C10,298.157876 22.1274086,306.976168 51.9032639,306.976168 L55.2064491,306.976168 C59.4912597,319.877659 71.4302573,328.693741 85.0294927,328.998318 C98.7777332,329.141329 110.952112,320.151435 114.852536,306.976168 L381.183641,306.976168 C385.699956,319.54162 397.622695,327.922054 410.983091,327.922054 C424.343487,327.922054 436.266225,319.54162 440.78254,306.976168 L450.550531,306.976168 C450.550531,306.976168 490,303.675203 490,287.123223 L490,263.922157 L478.061345,251.8029 Z" id="Shape" fill="#010101" fill-rule="nonzero"></path>
                </g>
            </g>
        </g>
    </g>
</svg>