<?xml version="1.0" encoding="UTF-8"?>
<svg width="500px" height="500px" viewBox="0 0 500 500" version="1.1" xmlns="http://www.w3.org/2000/svg" xmlns:xlink="http://www.w3.org/1999/xlink">
    <!-- Generator: Sketch 42 (36781) - http://www.bohemiancoding.com/sketch -->
    <title>ic/Calendar</title>
    <desc>Created with Sketch.</desc>
    <defs></defs>
    <g id="Master-UI-1024px" stroke="none" stroke-width="1" fill="none" fill-rule="evenodd">
        <g id="Master-UI-1024px-Iconography" transform="translate(-146.000000, -9521.000000)">
            <g id="Иконки" transform="translate(146.000000, 341.000000)">
                <g id="ic/Calendar" transform="translate(0.000000, 9180.000000)">
                    <rect id="Container" x="0" y="0" width="500" height="500"></rect>
                    <path d="M166.07,169.332853 L166.07,169.332853 C158.541111,169.332853 152.723333,163.427089 152.723333,155.980692 L152.723333,116.352161 C152.723333,108.905764 158.626667,103 166.07,103 L166.07,103 C173.598889,103 179.416667,108.905764 179.416667,116.352161 L179.416667,155.895101 C178.903333,163.427089 173,169.332853 166.07,169.332853 Z" id="Shape" fill="#000000" fill-rule="nonzero"></path>
                    <path d="M250,169.332853 L250,169.332853 C242.471111,169.332853 236.653333,163.427089 236.653333,155.980692 L236.653333,116.352161 C236.653333,108.905764 242.556667,103 250,103 L250,103 C257.528889,103 263.346667,108.905764 263.346667,116.352161 L263.346667,155.895101 C263.346667,163.427089 257.528889,169.332853 250,169.332853 Z" id="Shape" fill="#000000" fill-rule="nonzero"></path>
                    <path d="M333.93,169.332853 L333.93,169.332853 C326.401111,169.332853 320.583333,163.427089 320.583333,155.980692 L320.583333,116.352161 C320.583333,108.905764 326.486667,103 333.93,103 L333.93,103 C341.458889,103 347.276667,108.905764 347.276667,116.352161 L347.276667,155.895101 C347.362222,163.427089 341.458889,169.332853 333.93,169.332853 Z" id="Shape" fill="#000000" fill-rule="nonzero"></path>
                    <path d="M366.013333,151.701153 L366.013333,154.953602 C366.013333,171.558213 353.693333,186.536599 337.095556,188.676369 C317.845556,190.302594 301.761111,175.324207 301.761111,156.579827 L301.761111,152.300288 L281.997778,152.300288 L281.997778,155.552738 C281.997778,172.157349 269.677778,187.135735 253.08,189.275504 C233.83,191.415274 217.831111,175.923343 217.831111,157.178963 L217.831111,152.899424 L198.067778,152.899424 L198.067778,156.151873 C198.067778,172.756484 185.747778,187.73487 169.15,189.87464 C149.9,191.500865 133.815556,176.522478 133.815556,157.778098 L133.815556,153.498559 L102.93,153.498559 C99.1655556,153.498559 96.5133333,156.151873 96.5133333,159.917867 L96.5133333,393.152738 C96.5133333,396.918732 99.1655556,399.572046 102.93,399.572046 L397.07,399.572046 C400.834444,399.572046 403.486667,396.918732 403.486667,393.152738 L403.486667,158.120461 C403.486667,154.354467 400.834444,151.701153 397.07,151.701153 L366.013333,151.701153 Z M194.902222,365.078963 L139.291111,365.078963 L139.291111,307.818732 L195.415556,307.818732 L195.415556,365.078963 L194.902222,365.078963 L194.902222,365.078963 Z M194.902222,283.254179 L139.291111,283.254179 L139.291111,225.993948 L195.415556,225.993948 L195.415556,283.254179 L194.902222,283.254179 Z M277.805556,365.078963 L222.194444,365.078963 L222.194444,307.818732 L278.318889,307.818732 L278.318889,365.078963 L277.805556,365.078963 L277.805556,365.078963 Z M277.805556,283.254179 L222.194444,283.254179 L222.194444,225.993948 L278.318889,225.993948 L278.318889,283.254179 L277.805556,283.254179 Z M360.708889,323.909798 L322.208889,365.078963 L304.584444,365.078963 L304.584444,307.818732 L360.708889,307.818732 L360.708889,323.909798 Z M360.708889,283.254179 L305.097778,283.254179 L305.097778,225.993948 L361.222222,225.993948 L361.222222,283.254179 L360.708889,283.254179 Z" id="Shape" fill="#000000" fill-rule="nonzero"></path>
                </g>
            </g>
        </g>
    </g>
</svg>