<?xml version="1.0" encoding="UTF-8"?>
<svg width="500px" height="500px" viewBox="0 0 500 500" version="1.1" xmlns="http://www.w3.org/2000/svg" xmlns:xlink="http://www.w3.org/1999/xlink">
    <!-- Generator: Sketch 42 (36781) - http://www.bohemiancoding.com/sketch -->
    <title>ic/Climate</title>
    <desc>Created with Sketch.</desc>
    <defs></defs>
    <g id="Master-UI-1024px" stroke="none" stroke-width="1" fill="none" fill-rule="evenodd">
        <g id="Master-UI-1024px-Iconography" transform="translate(-146.000000, -66776.000000)">
            <g id="Иконки" transform="translate(146.000000, 341.000000)">
                <g id="ic/Climate" transform="translate(0.000000, 66435.000000)">
                    <rect id="Container" x="0" y="0" width="500" height="500"></rect>
                    <path d="M360.563093,254.408949 C363.515448,254.408949 366,256.884409 366,259.825961 L366,269.002773 C366,271.944324 363.442678,274.430142 360.563093,274.430142 L342.464326,274.430142 L323.585887,274.430142 L305.497515,274.430142 C302.61793,274.430142 300.060608,271.944324 300.060608,269.002773 L300.060608,259.825961 C300.060608,256.884409 302.54516,254.408949 305.497515,254.408949 L323.585887,254.408949 L342.464326,254.408949 L360.563093,254.408949 Z M360.563093,208.002868 C363.515448,208.002868 366,210.478329 366,213.41988 L366,222.596692 C366,225.538243 363.442678,228.024061 360.563093,228.024061 L342.464326,228.024061 L323.585887,228.024061 L305.497515,228.024061 C302.61793,228.024061 300.060608,225.538243 300.060608,222.596692 L300.060608,213.41988 C300.060608,210.478329 302.54516,208.002868 305.497515,208.002868 L323.585887,208.002868 L342.464326,208.002868 L360.563093,208.002868 Z M360.563093,161.595752 C363.515448,161.595752 366,164.071212 366,167.012764 L366,176.189575 C366,179.131127 363.442678,181.616945 360.563093,181.616945 L342.464326,181.616945 L323.585887,181.616945 L305.497515,181.616945 C302.61793,181.616945 300.060608,179.131127 300.060608,176.189575 L300.060608,167.012764 C300.060608,164.071212 302.54516,161.595752 305.497515,161.595752 L323.585887,161.595752 L342.464326,161.595752 L360.563093,161.595752 Z M360.563093,115.188635 C363.515448,115.188635 366,117.664096 366,120.605647 L366,129.782459 C366,132.72401 363.442678,135.209829 360.563093,135.209829 L342.464326,135.209829 L323.585887,135.209829 L305.497515,135.209829 C302.61793,135.209829 300.060608,132.72401 300.060608,129.782459 L300.060608,120.605647 C300.060608,117.664096 302.54516,115.188635 305.497515,115.188635 L323.585887,115.188635 L342.464326,115.188635 L360.563093,115.188635 Z M213.328945,88 C246.470169,88 273.322045,114.857193 273.322045,147.877143 L273.322045,282.390975 C285.952718,296.715501 292.574725,314.872331 292.574725,333.961342 C292.574725,377.54602 257.011323,413 213.266571,413 C169.532215,413 134,377.54602 134,333.961342 C134,314.830901 140.705172,296.684429 153.335846,282.380617 L153.335846,147.877143 C153.335846,114.867551 180.187722,88 213.328945,88 Z M213.328945,117.001211 C196.300926,117.001211 182.44357,130.849289 182.44357,147.877143 L182.44357,282.380617 L182.44357,293.307859 L175.197826,301.521416 C167.286762,310.480719 163.107725,321.697973 163.107725,333.961342 C163.107725,361.553923 185.603837,383.998789 213.266571,383.998789 C240.950097,383.998789 263.467001,361.553923 263.467001,333.961342 C263.467001,321.6669 259.308754,310.449646 251.449669,301.511059 L244.224716,293.297501 L244.224716,282.390975 L244.224716,147.877143 C244.21432,130.859647 230.356964,117.001211 213.328945,117.001211 Z M229.917229,301.777248 C240.655901,307.639636 248.223909,319.167617 248.213513,332.414956 C248.213513,351.617901 232.484947,367.174979 213.22187,367.174979 C193.948398,367.174979 178.323788,351.617901 178.323788,332.414956 C178.323788,319.167617 185.985357,307.629278 196.734423,301.777248 L196.734423,256.607862 C196.734423,247.534626 204.208871,240.180748 213.315431,240.180748 C222.42199,240.180748 229.917229,247.534626 229.917229,256.607862 L229.917229,301.777248 Z" id="Combined-Shape" fill="#000000"></path>
                </g>
            </g>
        </g>
    </g>
</svg>