<?xml version="1.0" encoding="UTF-8"?>
<svg width="500px" height="500px" viewBox="0 0 500 500" version="1.1" xmlns="http://www.w3.org/2000/svg" xmlns:xlink="http://www.w3.org/1999/xlink">
    <!-- Generator: Sketch 42 (36781) - http://www.bohemiancoding.com/sketch -->
    <title>ic/Customer</title>
    <desc>Created with Sketch.</desc>
    <defs></defs>
    <g id="Master-UI-1024px" stroke="none" stroke-width="1" fill="none" fill-rule="evenodd">
        <g id="Master-UI-1024px-Iconography" transform="translate(-146.000000, -6821.000000)">
            <g id="Иконки" transform="translate(146.000000, 341.000000)">
                <g id="ic/Customer" transform="translate(0.000000, 6480.000000)">
                    <rect id="Container" x="0" y="0" width="500" height="500"></rect>
                    <path d="M359.19708,337.867866 C358.153285,256.138303 341.613139,225.579949 285.890511,218.040617 C277.379562,225.098715 265.817518,228.547558 251.766423,228.547558 C237.715328,228.547558 225.671533,224.537275 217.160584,217.479177 C158.948905,224.537275 141.364964,254.052956 140.40146,336.263753 L140.40146,344.765553 L140.40146,350.780977 L140.40146,385.830848 C140.40146,390.322365 143.051095,392.086889 147.467153,393.851414 C147.467153,393.851414 171.072993,404.839589 250.883212,404.839589 C330.693431,404.839589 352.773723,393.851414 352.773723,393.851414 C357.510949,391.685861 359.839416,390.322365 359.839416,385.830848 C359.839416,385.830848 359.19708,340.354242 359.19708,337.867866 Z" id="Shape" fill="#000000" fill-rule="nonzero"></path>
                    <path d="M251.766423,201.999486 C283.40146,201.999486 302.992701,182.429306 302.992701,150.828278 C302.992701,119.227249 289.423358,93.6416452 251.766423,93.6416452 C213.627737,93.6416452 200.540146,119.227249 200.540146,151.309512 C200.540146,183.391774 220.211679,201.999486 251.766423,201.999486 Z" id="Shape" fill="#000000" fill-rule="nonzero"></path>
                </g>
            </g>
        </g>
    </g>
</svg>