<?xml version="1.0" encoding="UTF-8"?>
<svg width="500px" height="500px" viewBox="0 0 500 500" version="1.1" xmlns="http://www.w3.org/2000/svg" xmlns:xlink="http://www.w3.org/1999/xlink">
    <!-- Generator: Sketch 42 (36781) - http://www.bohemiancoding.com/sketch -->
    <title>ic/Delete</title>
    <desc>Created with Sketch.</desc>
    <defs></defs>
    <g id="Master-UI-1024px" stroke="none" stroke-width="1" fill="none" fill-rule="evenodd">
        <g id="Master-UI-1024px-Iconography" transform="translate(-146.000000, -28436.000000)">
            <g id="Иконки" transform="translate(146.000000, 341.000000)">
                <g id="ic/Delete" transform="translate(0.000000, 28095.000000)">
                    <rect id="Container" x="0" y="0" width="500" height="500"></rect>
                    <path d="M315.500584,141.333333 L315.500584,110.580667 C315.500584,97.8666667 304.59291,87 291.830931,87 L208.169069,87 C195.40709,87 184.499416,97.8666667 184.499416,110.580667 L184.499416,141.333333 L110,141.333333 L110,173.933333 L139.12349,173.933333 L150.031165,403.980667 C150.031165,409.414 155.485002,413 159.084534,413 L340.915466,413 C346.369303,413 349.968835,409.414 349.968835,403.980667 L360.87651,173.933333 L390,173.933333 L390,141.333333 L315.500584,141.333333 Z M210.023374,380.4 L188.208025,380.4 L188.208025,190.233333 L210.023374,190.233333 L210.023374,380.4 Z M262.816517,380.4 L241.001169,380.4 L241.001169,190.233333 L262.816517,190.233333 L262.816517,380.4 Z M282.777561,141.333333 L215.477211,141.333333 L215.477211,119.6 L282.777561,119.6 L282.777561,141.333333 Z M315.500584,380.4 L293.685236,380.4 L293.685236,190.233333 L315.500584,190.233333 L315.500584,380.4 Z" id="Shape" fill="#000000" fill-rule="nonzero"></path>
                </g>
            </g>
        </g>
    </g>
</svg>