<?xml version="1.0" encoding="UTF-8"?>
<svg width="500px" height="500px" viewBox="0 0 500 500" version="1.1" xmlns="http://www.w3.org/2000/svg" xmlns:xlink="http://www.w3.org/1999/xlink">
    <!-- Generator: Sketch 42 (36781) - http://www.bohemiancoding.com/sketch -->
    <title>ic/Door</title>
    <desc>Created with Sketch.</desc>
    <defs></defs>
    <g id="Master-UI-1024px" stroke="none" stroke-width="1" fill="none" fill-rule="evenodd">
        <g id="Master-UI-1024px-Iconography" transform="translate(-146.000000, -65156.000000)">
            <g id="Иконки" transform="translate(146.000000, 341.000000)">
                <g id="ic/Door" transform="translate(0.000000, 64815.000000)">
                    <rect id="Container" x="0" y="0" width="500" height="500"></rect>
                    <path d="M389.546676,89 C393.108911,89 396,91.9167134 396,95.4529058 L396,225.478958 L396,235.803607 L396,404.547094 C396,408.096192 393.108911,411 389.546676,411 L110.453324,411 C106.903996,411 104,408.096192 104,404.547094 L104,241.301483 L104,225.478958 C104,223.968978 104.606612,222.626774 105.484264,221.52978 L106.23285,220.703808 L214.313119,100.021563 C217.991513,94.2139479 223.063826,89 226.613154,89 L389.546676,89 Z M134.032084,382.423032 L366.280203,382.423032 L366.280203,242.256513 L134.032084,242.256513 L134.032084,382.423032 Z M366.280203,219.026052 L366.280203,119.339011 L239.340253,119.339011 L150.049196,219.026052 L366.280203,219.026052 Z M333.451803,263.795022 C337.039851,263.795022 340.20198,266.879511 340.20198,270.544762 L340.20198,282.069651 C340.20198,285.644561 337.117291,288.819391 333.451803,288.819391 L330.367115,288.819391 L286.471605,288.819391 L283.386917,288.819391 C279.708522,288.819391 276.623833,285.644561 276.623833,282.069651 L276.623833,270.544762 C276.623833,266.879511 279.798868,263.795022 283.386917,263.795022 L286.471605,263.795022 L330.367115,263.795022 L333.451803,263.795022 Z" id="Combined-Shape" fill="#000000"></path>
                </g>
            </g>
        </g>
    </g>
</svg>