<?xml version="1.0" encoding="UTF-8"?>
<svg width="500px" height="500px" viewBox="0 0 500 500" version="1.1" xmlns="http://www.w3.org/2000/svg" xmlns:xlink="http://www.w3.org/1999/xlink">
    <!-- Generator: Sketch 42 (36781) - http://www.bohemiancoding.com/sketch -->
    <title>ic/Engine</title>
    <desc>Created with Sketch.</desc>
    <defs></defs>
    <g id="Master-UI-1024px" stroke="none" stroke-width="1" fill="none" fill-rule="evenodd">
        <g id="Master-UI-1024px-Iconography" transform="translate(-146.000000, -53276.000000)">
            <g id="Иконки" transform="translate(146.000000, 341.000000)">
                <g id="ic/Engine" transform="translate(0.000000, 52935.000000)">
                    <rect id="Container" x="0" y="0" width="500" height="500"></rect>
                    <path d="M214.303463,130.163879 C250.362652,130.201907 286.429459,130.217118 322.496266,130.156274 C335.028986,130.141063 336.941273,128.110393 336.964129,115.591731 C336.971748,113.340502 336.766044,111.066456 337.002223,108.838043 C337.93932,99.9624181 333.680481,96.8745829 325.170421,97.0038765 C305.85708,97.2928857 286.528501,97.0951426 267.207542,97.0875371 C249.501741,97.0875371 231.788322,97.0647206 214.082522,97.0875371 C199.1423,97.1179591 198.73851,97.5362619 198.715654,111.948694 L198.715654,114.838786 C198.730892,128.445035 200.407,130.156274 214.303463,130.163879" id="Fill-1" fill="#000000"></path>
                    <path d="M337.486009,344.291555 C327.132229,352.231703 317.601267,361.30507 306.897029,368.712832 C302.082026,372.036438 295.301406,373.816126 289.343602,373.983447 C267.813226,374.591888 246.244758,373.785704 224.722001,374.432172 C215.58721,374.70597 208.989437,371.161805 202.368809,365.761896 C188.289498,354.285189 174.598739,342.108775 159.361389,332.381334 C158.744276,331.985848 156.176783,329.977994 155.529195,329.635747 C155.536814,329.643352 155.536814,329.650958 155.544433,329.650958 C153.746425,328.540554 151.308449,328.008168 148.276217,327.95493 C147.925758,327.947324 147.582917,327.939719 147.217221,327.947324 C141.404172,328.030985 135.591123,328.046196 129.770455,328.061407 L129.770455,254.424905 C131.431327,254.166318 136.6425,254.181529 138.356702,254.166318 C141.206086,254.128291 143.743105,253.945759 146.07442,253.618722 C150.371352,253.542667 153.274068,253.131969 155.21683,251.975933 C155.21683,251.983538 155.209211,251.991144 155.209211,251.991144 C159.948027,249.694281 165.936305,244.720281 171.02558,240.331904 C184.053514,229.090967 197.500476,218.321572 210.939818,207.567388 C213.004479,205.916993 215.975762,204.487158 218.543256,204.479553 C258.731766,204.312231 298.927895,204.388286 339.116405,204.456736 C340.000171,204.456736 340.883938,204.989121 342.59814,205.529112 C342.742894,208.822296 343.024785,212.259984 343.024785,215.697673 C343.05526,254.211951 342.933361,292.733835 343.16954,331.248114 C343.200015,336.800132 342.087688,340.762601 337.486009,344.291555 M473.867909,234.779885 C473.837434,222.314462 471.521357,220.504352 456.786839,220.534774 C442.63896,220.549985 440.315264,222.618682 440.269552,235.433959 C440.22384,247.199675 440.261934,258.980603 440.261934,270.951668 L407.326402,270.951668 C407.326402,258.706805 407.341639,246.469547 407.326402,234.217078 C407.311164,222.033059 405.360784,220.184921 393.338515,220.154499 C391.570982,220.154499 377.049788,220.276187 370.619626,220.207737 C370.619626,208.966801 370.726287,199.429497 370.581533,189.907405 C370.429159,179.868138 367.305502,176.711853 357.180283,176.704247 C308.245534,176.628192 259.303167,176.628192 210.368417,176.765091 C207.351422,176.772697 203.68684,177.312688 201.43933,179.039138 C189.302781,188.355881 177.135757,197.725864 165.776313,207.90203 C158.911887,214.054884 154.52353,218.062985 150.881804,220.686884 C142.91267,226.429041 138.585262,225.485958 119.858559,225.744545 C118.593859,225.759756 117.283447,225.698912 115.995891,225.714123 C104.133614,225.805389 100.773779,229.182233 100.697592,241.373858 C100.674736,245.458015 100.667117,249.542171 100.667117,253.641538 C100.659498,261.383943 100.682355,269.17198 100.682355,277.142549 L65.6364498,277.142549 C65.6364498,269.095925 65.6516872,261.330704 65.6516872,253.649144 C65.6516872,249.435694 65.6440685,245.245061 65.6212125,241.062033 C65.5450257,228.125068 62.7413533,225.683701 48.3268204,225.714123 C34.9027151,225.73694 32.0380934,228.368444 32.022856,241.084849 C32.0152373,245.245061 32.022856,249.397666 32.0152373,253.557878 C31.9923813,278.397458 32,303.237038 32.0076187,328.069012 C32.0076187,330.890655 32.0076187,333.712297 32,336.53394 C32,355.753051 33.218988,356.969932 52.0675898,356.658107 C62.5737425,356.490785 65.4993137,353.547455 65.6059751,342.663977 C65.6593058,337.796454 65.6669245,332.936536 65.6593058,328.030985 C65.6516872,322.965718 65.6288311,317.862424 65.6288311,312.683075 L101.291848,312.683075 C101.291848,318.265516 101.276611,323.178673 101.291848,328.053801 C110.784717,328.076618 120.277586,328.091829 129.770455,328.061407 C120.277586,328.091829 110.784717,328.076618 101.291848,328.053801 L101.291848,328.707875 C101.390891,351.843822 97.1930014,354.90884 127.355335,354.353638 C132.932205,354.254767 139.743301,353.84407 143.918335,356.642896 C145.952521,358.011886 147.948614,359.449327 149.952325,360.871556 C160.938455,368.636777 171.497938,377.063677 181.828861,385.68832 C194.628235,396.38166 207.488558,403.812239 225.636242,402.564936 C250.953099,400.81567 276.483279,402.390009 301.906797,401.895652 C306.95036,401.804386 312.717697,399.857376 316.801306,396.90644 C327.132229,389.44544 336.899371,381.178255 346.514139,372.781778 C356.768875,363.822492 357.987863,362.841382 366.635059,354.505749 C367.099798,354.513354 367.640724,354.513354 368.174031,354.52096 C368.966374,354.528565 369.812046,354.528565 370.718669,354.528565 L380.386767,354.528565 L392.622359,354.528565 C392.927106,354.528565 393.19376,354.52096 393.490888,354.52096 C397.650685,354.490538 400.591493,354.247161 402.648535,353.425767 C406.061702,351.44073 407.120698,347.07517 407.135935,339.682619 C407.16641,327.95493 407.143554,316.227241 407.143554,304.355047 L407.326402,304.355047 L440.261934,304.355047 C440.261934,317.086663 440.208603,328.905618 440.269552,340.709362 C440.330502,352.330574 443.545582,355.152217 456.558279,355.228272 C470.820439,355.319538 473.837434,352.939015 473.867909,340.838656 C473.951714,305.480662 473.951714,270.130274 473.867909,234.779885" id="Fill-4" fill="#000000"></path>
                    <path d="M242.612935,239.820814 L237.013209,253.44988 C233.866697,255.199146 231.771561,256.248705 228.61743,257.640513 L214.256227,254.491834 C210.401178,259.739632 210.050719,260.431733 206.203288,265.687137 L213.20485,278.624102 C212.511551,282.115029 212.161092,284.564001 211.452555,288.054928 L200.245484,297.49336 C202.005398,303.783113 202.005398,304.48282 203.750075,310.772572 L218.111277,313.571398 C220.556871,316.362619 221.958708,318.11949 224.411921,320.910711 L224.76238,335.589336 C230.712565,338.038309 231.421102,338.388162 237.371287,341.186988 L248.570739,331.398703 C252.067711,331.398703 254.528543,331.398703 258.025515,331.048849 L269.925885,340.137428 C275.525611,337.338602 276.226529,336.638896 281.833874,333.847675 L281.140575,319.161445 C283.23571,316.362619 284.637546,314.271105 286.740301,311.479884 L301.093884,307.981352 C302.145261,301.691599 302.49572,300.991893 303.547097,294.70214 L291.296268,285.613561 C290.237272,282.115029 289.886813,280.015909 288.835436,276.517377 L294.79324,263.238165 C290.59535,258.340219 290.237272,257.640513 286.039383,252.750173 L271.685799,256.598559 C268.531668,255.199146 266.078454,254.141981 262.924323,252.750173 L256.27322,239.470961 C249.972575,239.820814 248.921198,239.820814 242.612935,239.820814 Z M227.566052,290.154048 C227.566052,276.86723 238.422664,266.036991 251.724871,266.036991 C265.027077,266.036991 275.87607,276.86723 275.87607,290.154048 C275.87607,303.43326 265.027077,314.271105 251.724871,314.271105 C238.422664,314.271105 227.566052,303.43326 227.566052,290.154048 Z" id="Clip-9" fill="#000000"></path>
                </g>
            </g>
        </g>
    </g>
</svg>