<?xml version="1.0" encoding="UTF-8"?>
<svg width="500px" height="500px" viewBox="0 0 500 500" version="1.1" xmlns="http://www.w3.org/2000/svg" xmlns:xlink="http://www.w3.org/1999/xlink">
    <!-- Generator: Sketch 42 (36781) - http://www.bohemiancoding.com/sketch -->
    <title>ic/Forward</title>
    <desc>Created with Sketch.</desc>
    <defs></defs>
    <g id="Master-UI-1024px" stroke="none" stroke-width="1" fill="none" fill-rule="evenodd">
        <g id="Master-UI-1024px-Iconography" transform="translate(-146.000000, -40316.000000)">
            <g id="Иконки" transform="translate(146.000000, 341.000000)">
                <g id="ic/Forward" transform="translate(0.000000, 39975.000000)">
                    <rect id="Container" x="0" y="0" width="500" height="500"></rect>
                    <path d="M235,263.142402 L235,288.636445 L235,338.878001 C235,343.206908 243.409234,347.535815 248.959328,343.206908 L377.956976,255.710516 C383.50707,253.611652 383.50707,247.052702 377.956976,244.822659 L248.959328,157.326267 C243.409234,152.866181 235,155.096224 235,161.655174 L235,211.89673 L235,237.390773 L116.959328,157.326267 C111.409234,152.866181 103,155.096224 103,161.655174 L103,211.89673 L103,288.636445 L103,338.878001 C103,343.206908 111.409234,347.535815 116.959328,343.206908 L235,263.142402 Z" id="Combined-Shape" fill="#000000"></path>
                </g>
            </g>
        </g>
    </g>
</svg>