<?xml version="1.0" encoding="UTF-8"?>
<svg width="500px" height="500px" viewBox="0 0 500 500" version="1.1" xmlns="http://www.w3.org/2000/svg" xmlns:xlink="http://www.w3.org/1999/xlink">
    <!-- Generator: Sketch 42 (36781) - http://www.bohemiancoding.com/sketch -->
    <title>ic/GTI</title>
    <desc>Created with Sketch.</desc>
    <defs></defs>
    <g id="Master-UI-1024px" stroke="none" stroke-width="1" fill="none" fill-rule="evenodd">
        <g id="Master-UI-1024px-Iconography" transform="translate(-146.000000, -65696.000000)">
            <g id="Иконки" transform="translate(146.000000, 341.000000)">
                <g id="ic/GTI" transform="translate(0.000000, 65355.000000)">
                    <rect id="Container" x="0" y="0" width="500" height="500"></rect>
                    <path d="M442.60289,216.430277 L466.110615,216.430277 C467.706819,216.430277 469,215.14152 469,213.54551 L469,193.215583 C469,191.619573 467.706819,190.322282 466.110615,190.322282 L377.875553,190.322282 C376.283617,190.322282 374.990436,191.619573 374.990436,193.215583 L374.990436,213.54551 C374.990436,215.14152 376.283617,216.430277 377.875553,216.430277 L401.387547,216.430277 C402.18138,216.430277 402.830105,217.074655 402.830105,217.87266 L403.013626,278.900846 C403.013626,279.707386 402.373437,280.347497 401.566799,280.347497 L377.875553,280.347497 C376.283617,280.347497 374.990436,281.644788 374.990436,283.236531 L374.990436,303.378691 C374.990436,304.974702 376.283617,306.263458 377.875553,306.263458 L466.110615,306.263458 C467.706819,306.263458 469,304.974702 469,303.378691 L469,283.236531 C469,281.644788 467.706819,280.347497 466.110615,280.347497 L442.419369,280.347497 C441.621267,280.347497 440.97681,279.707386 440.97681,278.900846 L441.156063,217.87266 C441.156063,217.074655 441.804788,216.430277 442.60289,216.430277 M345.204594,190.420432 L224.409538,190.420432 C222.817603,190.420432 221.524422,191.709189 221.524422,193.300932 L221.524422,233.627926 C221.524422,235.219669 222.817603,236.516961 224.409538,236.516961 L248.190411,236.516961 C249.786615,236.516961 251.075528,235.219669 251.075528,233.627926 L251.075528,217.966543 C251.075528,217.168538 251.719985,216.52416 252.526622,216.52416 L257.921278,216.52416 L263.691512,216.52416 L264.199395,216.52416 C264.997497,216.52416 265.641953,217.168538 265.641953,217.966543 L265.825474,278.998996 C265.825474,279.792734 265.185285,280.44138 264.382915,280.44138 L240.695937,280.44138 C239.099733,280.44138 237.806552,281.734404 237.806552,283.326147 L237.806552,303.468307 C237.806552,305.064317 239.099733,306.361609 240.695937,306.361609 L328.922464,306.361609 C330.518667,306.361609 331.816116,305.064317 331.816116,303.468307 L331.816116,283.326147 C331.816116,281.734404 330.518667,280.44138 328.922464,280.44138 L305.235485,280.44138 C304.433115,280.44138 303.792926,279.792734 303.792926,278.998996 L303.972179,217.966543 C303.972179,217.168538 304.620904,216.52416 305.414738,216.52416 L305.931156,216.52416 L311.697122,216.52416 L317.100314,216.52416 C317.88988,216.52416 318.542872,217.168538 318.542872,217.966543 L318.542872,233.627926 C318.542872,235.219669 319.831785,236.516961 321.423721,236.516961 L345.204594,236.516961 C346.800798,236.516961 348.085443,235.219669 348.085443,233.627926 L348.085443,193.300932 C348.085443,191.709189 346.800798,190.420432 345.204594,190.420432 M202.899201,237.997751 L113.272795,237.997751 C111.676592,237.997751 110.383411,239.290775 110.383411,240.886785 L110.383411,261.033213 C110.383411,262.629223 111.676592,263.91798 113.272795,263.91798 L139.879034,263.91798 C140.681404,263.91798 141.32586,264.566626 141.32586,265.356096 L141.32586,283.087172 C141.32586,283.129846 141.304521,283.17252 141.274645,283.198124 C141.214894,283.253601 141.125268,283.253601 141.044177,283.262135 C109.371913,286.624852 80.3628326,287.077197 77.5075914,251.525431 C76.7521688,242.060322 79.1080629,234.340583 84.8057416,226.518427 C100.473291,205.006429 129.358601,212.303694 137.868842,228.460097 C138.649872,229.940887 140.177789,230.905321 141.859351,230.905321 L180.377366,230.905321 C181.969301,230.905321 183.258214,229.608029 183.258214,228.016286 L183.258214,193.300932 C183.258214,191.709189 181.969301,190.420432 180.377366,190.420432 L156.600761,190.420432 C155.004557,190.420432 153.715644,191.709189 153.715644,193.300932 L153.715644,203.973716 C153.715644,204.596757 153.019972,204.959487 152.499286,204.618095 C141.086857,195.942456 129.230563,192.528531 116.938942,190.420432 C96.8242158,185.896981 71.4172637,192.566938 55.1906163,204.899743 C42.9587459,214.189888 35.8270447,226.911028 32.0157885,241.859754 C30.4195849,248.115773 30.8036981,256.313461 32.4767243,262.573747 C39.9541273,290.542332 59.6463291,307.927747 91.527722,310.75277 C111.804629,311.943377 131.402937,308.892181 151.282927,300.327495 C152.482214,299.802604 153.715644,300.831049 153.715644,302.132609 L153.715644,303.468307 C153.715644,305.064317 155.004557,306.361609 156.600761,306.361609 L180.377366,306.361609 C181.969301,306.361609 183.258214,305.064317 183.258214,303.468307 L183.258214,265.356096 C183.258214,264.566626 183.906939,263.91798 184.705041,263.91798 L202.899201,263.91798 C204.495405,263.91798 205.788586,262.629223 205.788586,261.033213 L205.788586,240.886785 C205.788586,239.290775 204.495405,237.997751 202.899201,237.997751" id="Fill-1" fill="#000000"></path>
                </g>
            </g>
        </g>
    </g>
</svg>