<?xml version="1.0" encoding="UTF-8"?>
<svg width="500px" height="500px" viewBox="0 0 500 500" version="1.1" xmlns="http://www.w3.org/2000/svg" xmlns:xlink="http://www.w3.org/1999/xlink">
    <!-- Generator: Sketch 42 (36781) - http://www.bohemiancoding.com/sketch -->
    <title>ic/Heat</title>
    <desc>Created with Sketch.</desc>
    <defs></defs>
    <g id="Master-UI-1024px" stroke="none" stroke-width="1" fill="none" fill-rule="evenodd">
        <g id="Master-UI-1024px-Iconography" transform="translate(-146.000000, -60836.000000)">
            <g id="Иконки" transform="translate(146.000000, 341.000000)">
                <g id="ic/Heat" transform="translate(0.000000, 60495.000000)">
                    <rect id="Container" x="0" y="0" width="500" height="500"></rect>
                    <path d="M315.01535,269.664397 C313.836731,269.13965 312.589456,268.774609 311.410837,268.272677 C310.19789,263.310396 308.607328,259.386201 307.131194,255.701564 C304.407785,248.982521 302.061991,243.176081 302.061991,230.776081 C302.061991,218.387489 304.407785,212.592456 307.131194,205.873413 C310.11779,198.469917 313.504887,190.073965 313.504887,174.149034 C313.504887,169.1069 309.408331,165.022999 304.350571,165.022999 C299.304253,165.022999 295.207697,169.1069 295.207697,174.149034 C295.207697,186.537626 292.85046,192.332659 290.138494,199.051702 C287.140455,206.455198 283.7648,214.85115 283.7648,230.776081 C283.7648,245.674333 286.717068,253.979025 289.554906,261.051702 C279.5767,258.542042 269.30098,257.013431 258.796401,256.454462 C258.693415,256.203496 258.590429,255.941122 258.498886,255.701564 C255.775476,248.982521 253.429683,243.176081 253.429683,230.776081 C253.429683,218.387489 255.775476,212.592456 258.498886,205.873413 C261.485481,198.469917 264.872579,190.073965 264.872579,174.149034 C264.872579,169.1069 260.776022,165.022999 255.718262,165.022999 C250.671945,165.022999 246.575388,169.1069 246.575388,174.149034 C246.575388,186.537626 244.218151,192.332659 241.506185,199.051702 C238.508146,206.455198 235.132492,214.85115 235.132492,230.776081 C235.132492,242.651334 237.009127,250.340018 239.206163,256.55713 C229.880202,257.16173 220.714442,258.530635 211.800426,260.686661 C211.159624,258.952714 210.495936,257.287213 209.866577,255.701564 C207.143168,248.982521 204.797374,243.176081 204.797374,230.776081 C204.797374,218.387489 207.143168,212.592456 209.866577,205.873413 C212.853173,198.469917 216.24027,190.073965 216.24027,174.149034 C216.24027,169.1069 212.143713,165.022999 207.085953,165.022999 C202.039636,165.022999 197.943079,169.1069 197.943079,174.149034 C197.943079,186.537626 195.585842,192.332659 192.873876,199.051702 C189.875837,206.455198 186.500183,214.85115 186.500183,230.776081 C186.500183,246.71242 189.875837,255.108372 192.873876,262.523275 C193.354478,263.721067 193.812193,264.896044 194.258466,266.093836 C191.157442,267.245998 187.987759,268.3069 184.989721,269.664397 L114.398494,163.243422 C153.842157,140.770561 201.421719,128.518859 249.996814,128.518859 C298.571908,128.518859 346.162913,140.770561 385.606576,163.243422 L315.01535,269.664397 Z M419.706407,155.919779 C418.939733,152.212328 416.719811,148.94977 413.538686,146.873597 C366.634254,116.21012 310.072019,100 249.996814,100 C189.898723,100 133.359373,116.21012 86.4549416,146.873597 C83.2852593,148.94977 81.0653375,152.212328 80.2986634,155.919779 C79.5205465,159.627231 80.2757776,163.494388 82.3698276,166.665685 L167.264674,294.658326 C169.907983,298.662374 174.393599,301.057958 179.199615,301.057958 L182.495169,301.057958 C184.875292,301.057958 187.209642,300.464765 189.303692,299.335419 C191.924116,297.920883 194.761954,296.825759 197.531135,295.616559 C196.741575,302.814719 194.910712,307.343514 192.873876,312.397056 C189.875837,319.81196 186.500183,328.207912 186.500183,344.155658 C186.500183,360.103404 189.875837,368.510764 192.873876,375.914259 C195.585842,382.64471 197.943079,388.462557 197.943079,400.873965 C197.943079,405.916099 202.039636,410 207.085953,410 C212.143713,410 216.24027,405.916099 216.24027,400.873965 C216.24027,384.926219 212.853173,376.530267 209.866577,369.115363 C207.143168,362.384913 204.797374,356.567065 204.797374,344.155658 C204.797374,331.74425 207.143168,325.93781 209.866577,319.20736 C212.738744,312.066237 215.96564,303.932659 216.194498,289.091444 C226.00106,286.593192 236.173795,285.25851 246.449516,284.996136 C246.472402,285.851702 246.575388,286.524747 246.575388,287.448758 C246.575388,299.860166 244.218151,305.666605 241.506185,312.397056 C238.508146,319.81196 235.132492,328.207912 235.132492,344.155658 C235.132492,360.103404 238.508146,368.510764 241.506185,375.914259 C244.218151,382.64471 246.575388,388.462557 246.575388,400.873965 C246.575388,405.916099 250.671945,410 255.718262,410 C260.776022,410 264.872579,405.916099 264.872579,400.873965 C264.872579,384.926219 261.485481,376.530267 258.498886,369.115363 C255.775476,362.384913 253.429683,356.567065 253.429683,344.155658 C253.429683,331.74425 255.775476,325.93781 258.498886,319.20736 C261.485481,311.792456 264.872579,303.396504 264.872579,287.448758 C264.872579,286.809936 264.83825,286.262374 264.826807,285.634959 C275.205514,286.74149 285.355363,289.034407 294.955953,292.468077 C294.383808,301.411592 292.438516,306.704692 290.138494,312.397056 C287.140455,319.81196 283.7648,328.207912 283.7648,344.155658 C283.7648,360.103404 287.140455,368.510764 290.138494,375.914259 C292.85046,382.64471 295.207697,388.462557 295.207697,400.873965 C295.207697,405.916099 299.304253,410 304.350571,410 C309.408331,410 313.504887,405.916099 313.504887,400.873965 C313.504887,384.926219 310.11779,376.530267 307.131194,369.115363 C304.407785,362.384913 302.061991,356.567065 302.061991,344.155658 C302.061991,331.74425 304.407785,325.93781 307.131194,319.20736 C309.202359,314.062557 311.445166,308.381601 312.635227,300.088316 C314.202904,300.658694 315.827795,301.057958 317.509901,301.057958 L320.805455,301.057958 C325.611472,301.057958 330.085644,298.662374 332.740396,294.658326 L417.635243,166.665685 C419.71785,163.494388 420.473081,159.627231 419.706407,155.919779 L419.706407,155.919779 Z" id="Fill-1" fill="#000000"></path>
                </g>
            </g>
        </g>
    </g>
</svg>