<?xml version="1.0" encoding="UTF-8"?>
<svg width="500px" height="500px" viewBox="0 0 500 500" version="1.1" xmlns="http://www.w3.org/2000/svg" xmlns:xlink="http://www.w3.org/1999/xlink">
    <!-- Generator: Sketch 42 (36781) - http://www.bohemiancoding.com/sketch -->
    <title>ic/HighBeam</title>
    <desc>Created with Sketch.</desc>
    <defs></defs>
    <g id="Master-UI-1024px" stroke="none" stroke-width="1" fill="none" fill-rule="evenodd">
        <g id="Master-UI-1024px-Iconography" transform="translate(-146.000000, -64076.000000)">
            <g id="Иконки" transform="translate(146.000000, 341.000000)">
                <g id="ic/HighBeam" transform="translate(0.000000, 63735.000000)">
                    <rect id="Container" x="0" y="0" width="500" height="500"></rect>
                    <path d="M181.840809,329.743505 C188.61536,329.743505 194.113248,335.237086 194.113248,342.029338 C194.113248,348.821589 188.61536,354.325477 181.840809,354.325477 L89.2827345,354.325477 C82.4978879,354.325477 77,348.821589 77,342.029338 C77,335.237086 82.4978879,329.743505 89.2827345,329.743505 L181.840809,329.743505 Z M181.840809,284.922891 C188.61536,284.922891 194.113248,290.416473 194.113248,297.208724 C194.113248,304.000975 188.61536,309.504864 181.840809,309.504864 L89.2827345,309.504864 C82.4978879,309.504864 77,304.000975 77,297.208724 C77,290.416473 82.4978879,284.922891 89.2827345,284.922891 L181.840809,284.922891 Z M181.840809,240.102278 C188.61536,240.102278 194.113248,245.595859 194.113248,252.377803 C194.113248,259.180362 188.61536,264.673943 181.840809,264.673943 L89.2827345,264.673943 C82.4978879,264.673943 77,259.180362 77,252.377803 C77,245.595859 82.4978879,240.102278 89.2827345,240.102278 L181.840809,240.102278 Z M181.840809,195.280633 C188.61536,195.280633 194.113248,200.774214 194.113248,207.556159 C194.113248,214.358717 188.61536,219.852298 181.840809,219.852298 L89.2827345,219.852298 C82.4978879,219.852298 77,214.358717 77,207.556159 C77,200.774214 82.4978879,195.280633 89.2827345,195.280633 L181.840809,195.280633 Z M181.840809,150.460019 C188.61536,150.460019 194.113248,155.953601 194.113248,162.735545 C194.113248,169.538103 188.61536,175.031685 181.840809,175.031685 L89.2827345,175.031685 C82.4978879,175.031685 77,169.538103 77,162.735545 C77,155.953601 82.4978879,150.449712 89.2827345,150.449712 L181.840809,150.460019 Z M375.426177,169.580362 C406.11757,192.070032 423.002469,220.63047 423.002469,250.005153 C423.002469,279.379837 406.11757,307.929968 375.426177,330.429945 C348.441226,350.198592 314.846454,362 285.565568,362 C256.078769,362 234.293131,350.10583 220.816098,326.647311 C210.232149,308.249482 205.09461,283.183086 205.09461,250.005153 C205.09461,216.816914 210.232149,191.760825 220.816098,173.373303 C234.293131,149.904477 256.078769,138 285.565568,138 C314.846454,138 348.441226,149.801408 375.426177,169.580362 Z M360.919578,310.58915 C384.774646,293.108637 398.457592,271.020936 398.457592,250.005153 C398.457592,228.979064 384.774646,206.891363 360.919578,189.41085 C338.341173,172.868265 309.472114,162.581972 285.565568,162.581972 C259.527818,162.581972 229.649783,172.51783 229.649783,250.005153 C229.649783,327.492477 259.527818,337.428335 285.565568,337.428335 C309.461819,337.428335 338.341173,327.142042 360.919578,310.58915 Z" id="Combined-Shape" fill="#000000"></path>
                </g>
            </g>
        </g>
    </g>
</svg>