<?xml version="1.0" encoding="UTF-8"?>
<svg width="500px" height="500px" viewBox="0 0 500 500" version="1.1" xmlns="http://www.w3.org/2000/svg" xmlns:xlink="http://www.w3.org/1999/xlink">
    <!-- Generator: Sketch 42 (36781) - http://www.bohemiancoding.com/sketch -->
    <title>ic/Models</title>
    <desc>Created with Sketch.</desc>
    <defs></defs>
    <g id="Master-UI-1024px" stroke="none" stroke-width="1" fill="none" fill-rule="evenodd">
        <g id="Master-UI-1024px-Iconography" transform="translate(-146.000000, -341.000000)">
            <g id="Иконки" transform="translate(146.000000, 341.000000)">
                <g id="ic/Models">
                    <rect id="Container" x="0" y="0" width="500" height="500"></rect>
                    <path d="M482.418953,251.530979 L482.418953,223.440705 C482.418953,223.440705 478.029925,210.34524 461.27182,192.251505 C451.296758,181.055382 445.112219,177.256697 445.112219,177.256697 L449.501247,173.557978 L449.501247,171.058843 C449.501247,171.058843 384.663342,157.363585 289.301746,159.162962 C193.94015,161.662097 142.76808,209.745448 142.76808,209.745448 C142.76808,209.745448 69.2518703,215.943301 34.9376559,232.837452 C20.5735661,240.334856 15.5860349,264.72641 15.5860349,264.72641 L10,273.523364 L10,306.012115 C10,306.012115 24.9625935,316.008653 58.5785536,316.008653 L61.6708229,316.008653 C66.0598504,330.403669 79.7256858,341 95.9850374,341 C112.244389,341 125.910224,330.403669 130.299252,316.008653 L379.67581,316.008653 C384.064838,330.403669 397.730673,341 413.990025,341 C430.249377,341 443.316708,330.403669 448.304239,316.008653 L454.488778,316.008653 C454.488778,316.008653 490,312.309934 490,292.916649 L490,265.426168 L482.418953,251.530979 Z" id="Shape" fill="#000000" fill-rule="nonzero"></path>
                </g>
            </g>
        </g>
    </g>
</svg>