<?xml version="1.0" encoding="UTF-8"?>
<svg width="500px" height="500px" viewBox="0 0 500 500" version="1.1" xmlns="http://www.w3.org/2000/svg" xmlns:xlink="http://www.w3.org/1999/xlink">
    <!-- Generator: Sketch 42 (36781) - http://www.bohemiancoding.com/sketch -->
    <title>ic/Mount</title>
    <desc>Created with Sketch.</desc>
    <defs></defs>
    <g id="Master-UI-1024px" stroke="none" stroke-width="1" fill="none" fill-rule="evenodd">
        <g id="Master-UI-1024px-Iconography" transform="translate(-146.000000, -69476.000000)">
            <g id="Иконки" transform="translate(146.000000, 341.000000)">
                <g id="ic/Mount" transform="translate(0.000000, 69135.000000)">
                    <rect id="Container" x="0" y="0" width="500" height="500"></rect>
                    <path d="M328.814991,278.288245 C328.814991,321.61431 254.404429,354.69506 251.214651,356.057581 C250.834412,356.279387 250.380239,356.34276 249.989438,356.34276 C249.556388,356.34276 248.753663,154.172061 249.989438,154.172061 L250.010562,154.172061 C251.278024,154.193186 252.429302,154.953663 252.872913,156.136627 C252.946848,156.347871 263.487905,169.381601 325.699148,169.381601 C327.420784,169.381601 328.814991,170.786371 328.814991,172.47632 L328.814991,278.288245 Z M347.087564,279.703578 C347.087564,333.032027 255.439523,373.833731 251.531516,375.52368 C251.056218,375.76661 250.506985,375.851107 250.010562,375.851107 C249.461329,375.851107 248.964906,375.76661 248.447359,375.52368 C244.581601,373.833731 152.93356,333.032027 152.93356,279.703578 L152.93356,149.376831 C152.93356,147.274957 154.634072,145.54276 156.746508,145.54276 C233.100511,145.54276 246.313799,126.995571 246.472232,126.710392 C247.074276,125.305622 248.457922,124.355026 250,124.355026 L250.042249,124.355026 C251.605451,124.37615 252.978535,125.326746 253.559455,126.773765 C253.675639,127.037819 266.635434,145.54276 343.264055,145.54276 C345.387053,145.54276 347.077002,147.274957 347.077002,149.376831 C347.077002,149.376831 347.077002,279.703578 347.087564,279.703578 L347.087564,279.703578 Z M369.10971,118.017717 C271.251107,118.017717 254.668484,91.4221465 254.531175,91.0735945 C253.802385,89.2568995 252.049063,88.0422487 250.031687,88 L249.957751,88 C248.01431,88 246.229302,89.2146508 245.458262,90.9890971 C245.331516,91.3798978 228.389779,118.017717 130.879727,118.017717 C128.165247,118.017717 126,120.225213 126,122.886882 L126,289.389097 C126,357.546848 243.081772,409.618399 248.024872,411.80477 C248.679727,412.089949 249.32402,412.195571 250.010562,412.195571 C250.654855,412.195571 251.341397,412.089949 251.954003,411.80477 C256.939353,409.618399 374,357.546848 374,289.389097 L374,122.886882 C373.989438,120.225213 371.824191,118.017717 369.10971,118.017717 L369.10971,118.017717 Z" id="Fill-1" fill="#000000"></path>
                </g>
            </g>
        </g>
    </g>
</svg>