<?xml version="1.0" encoding="UTF-8"?>
<svg width="500px" height="500px" viewBox="0 0 500 500" version="1.1" xmlns="http://www.w3.org/2000/svg" xmlns:xlink="http://www.w3.org/1999/xlink">
    <!-- Generator: Sketch 42 (36781) - http://www.bohemiancoding.com/sketch -->
    <title>ic/Pin</title>
    <desc>Created with Sketch.</desc>
    <defs></defs>
    <g id="Master-UI-1024px" stroke="none" stroke-width="1" fill="none" fill-rule="evenodd">
        <g id="Master-UI-1024px-Iconography" transform="translate(-146.000000, -43016.000000)">
            <g id="Иконки" transform="translate(146.000000, 341.000000)">
                <g id="ic/Pin" transform="translate(0.000000, 42675.000000)">
                    <rect id="Container" x="0" y="0" width="500" height="500"></rect>
                    <path d="M249.112231,93 C339.664682,93 362.224462,115.672453 364,206.153301 C364,284.514312 275.223087,381.99541 254.334402,404.667863 C252.663307,406.444046 247.441136,406.444046 245.665598,404.667863 C224.776913,383.771593 136,286.290495 136,206.153301 C136,115.672453 158.55978,93 249.112231,93 Z M249.888745,230.755663 C269.751593,230.755663 285.853612,214.666452 285.853612,194.819403 C285.853612,174.972355 269.751593,158.883143 249.888745,158.883143 C230.025898,158.883143 213.923878,174.972355 213.923878,194.819403 C213.923878,214.666452 230.025898,230.755663 249.888745,230.755663 Z" id="Combined-Shape" fill="#000000"></path>
                </g>
            </g>
        </g>
    </g>
</svg>