<?xml version="1.0" encoding="UTF-8"?>
<svg width="500px" height="500px" viewBox="0 0 500 500" version="1.1" xmlns="http://www.w3.org/2000/svg" xmlns:xlink="http://www.w3.org/1999/xlink">
    <!-- Generator: Sketch 42 (36781) - http://www.bohemiancoding.com/sketch -->
    <title>ic/Record</title>
    <desc>Created with Sketch.</desc>
    <defs></defs>
    <g id="Master-UI-1024px" stroke="none" stroke-width="1" fill="none" fill-rule="evenodd">
        <g id="Master-UI-1024px-Iconography" transform="translate(-146.000000, -37076.000000)">
            <g id="Иконки" transform="translate(146.000000, 341.000000)">
                <g id="ic/Record" transform="translate(0.000000, 36735.000000)">
                    <rect id="Container" x="0" y="0" width="500" height="500"></rect>
                    <circle id="Oval-6" fill="#000000" cx="250" cy="250" r="95"></circle>
                </g>
            </g>
        </g>
    </g>
</svg>