<?xml version="1.0" encoding="UTF-8"?>
<svg width="500px" height="500px" viewBox="0 0 500 500" version="1.1" xmlns="http://www.w3.org/2000/svg" xmlns:xlink="http://www.w3.org/1999/xlink">
    <!-- Generator: Sketch 42 (36781) - http://www.bohemiancoding.com/sketch -->
    <title>ic/Snow</title>
    <desc>Created with Sketch.</desc>
    <defs></defs>
    <g id="Master-UI-1024px" stroke="none" stroke-width="1" fill="none" fill-rule="evenodd">
        <g id="Master-UI-1024px-Iconography" transform="translate(-146.000000, -67856.000000)">
            <g id="Иконки" transform="translate(146.000000, 341.000000)">
                <g id="ic/Snow" transform="translate(0.000000, 67515.000000)">
                    <rect id="Container" x="0" y="0" width="500" height="500"></rect>
                    <path d="M418.543696,334.619125 C417.531243,330.612977 414.908069,327.144053 411.349142,325.087257 L376.066679,304.703486 L404.722175,287.619799 C408.15838,285.962083 410.704853,282.938286 411.886049,279.10098 C413.159286,274.925991 412.668399,270.367271 410.505431,266.62206 C408.557225,263.229881 405.443164,260.804704 401.700155,259.822354 C397.727043,258.763257 393.416447,259.377226 389.811499,261.48007 L345.6624,287.358862 L280.09838,249.185341 L345.64706,211.410899 L389.474015,237.044104 C391.636983,238.609725 394.260158,239.438583 397.098095,239.438583 C402.175702,239.438583 406.839123,237.013406 410.536111,232.101654 C412.668399,228.2183 413.128605,223.628882 411.809348,219.469242 C410.612812,215.724031 408.097019,212.792329 405.013639,211.318804 L376.066679,194.066275 L411.349142,173.682505 C418.528356,169.538214 420.967448,160.405426 416.932975,152.899655 C415.03079,149.415381 411.840028,146.882759 407.943617,145.762265 C403.893804,144.672471 399.583208,145.178995 395.9936,147.281839 L360.496375,167.865149 L359.990148,133.237298 C359.867426,124.657082 353.209779,117.949471 344.834029,117.949471 C340.860917,117.949471 337.071887,119.530441 334.20327,122.446793 C331.303972,125.363146 329.66257,129.323246 329.69325,133.329394 L330.076755,185.440011 L264.957601,223.183754 L264.957601,146.452981 L308.891938,121.387697 C312.450864,119.376948 315.135399,115.923373 316.224554,111.917225 C317.298368,108.003173 316.807481,103.966327 314.843936,100.497402 C310.5947,93.1144251 301.728064,90.6892476 294.211365,94.9563321 L264.957601,111.472098 L264.957601,71.3492246 C264.957601,62.8764526 258.069851,56 249.60206,56 C241.118928,56 234.461281,62.7383096 234.461281,71.3492246 L234.461281,111.963273 L203.94962,94.9409828 C196.509623,90.8580891 187.735028,93.1911712 183.547153,100.512751 C181.491566,104.073771 180.954659,108.218062 182.028473,112.132114 C183.102287,116.076865 185.694781,119.361599 189.299728,121.387697 L234.461281,146.86741 L234.461281,222.769325 L167.670044,184.212073 L168.06889,133.682426 C168.452395,129.891167 167.117797,126.007813 164.433262,123.014715 C161.518624,119.791377 157.40745,117.949471 152.728688,117.949471 C144.613722,117.949471 137.664611,124.964066 137.572569,133.252647 L137.219745,166.65256 L102.811673,146.86741 C99.1607054,144.764566 94.9268099,144.211994 90.9690379,145.347836 C87.1339876,146.437631 83.9585659,148.954904 82.0717212,152.469877 C77.9912276,160.113791 80.384299,169.062388 87.6555545,173.283425 L122.523832,193.467656 L93.0399651,211.149962 C89.5577394,212.823028 87.011266,215.908222 85.8607509,219.791576 C84.6335348,223.981914 85.2471429,228.525285 87.5481731,232.255146 C90.4167907,236.952009 94.8807893,239.438583 100.479963,239.438583 C103.34858,239.438583 105.941074,238.71717 108.380166,237.228295 L152.759369,211.011819 L219.305162,249.185341 L152.744029,287.742593 L108.364826,261.48007 C104.621817,259.30048 100.111798,258.671162 96.077325,259.853052 C92.2882953,260.912148 89.220255,263.352675 87.4407916,266.698806 C83.4063187,274.173879 85.7533695,283.275969 92.7485013,287.466307 L122.523832,305.117915 L87.6402143,325.501686 C84.0506072,327.58918 81.5041337,330.889263 80.4916805,334.818665 C79.463887,338.732717 80.0621548,342.846309 82.1484222,346.438028 C85.1551016,351.503272 89.5117188,354.081942 95.1262325,354.081942 C96.1693662,354.081942 97.9334893,353.851703 102.811673,351.902352 L137.219745,332.117201 L137.572569,365.532463 C137.664611,373.836394 144.47566,380.590053 153.127534,380.590053 C157.085306,380.590053 160.797634,379.05513 163.589551,376.246222 C166.504189,373.299171 168.11491,369.308373 168.08423,364.995241 L167.670044,314.173958 L234.461281,275.969738 L234.461281,351.472574 L189.299728,376.936937 C185.63342,378.993733 183.025586,382.309166 181.967112,386.269266 C180.908638,390.183318 181.476226,394.29691 183.562493,397.842581 C186.538492,402.938524 190.895109,405.532543 196.524963,405.532543 C199.485622,405.532543 201.940054,404.949272 203.980301,403.767382 L234.461281,386.468806 L234.461281,427.819617 C234.461281,436.323087 241.118928,443 249.60206,443 C258.223253,443 264.957601,436.323087 264.957601,427.819617 L264.957601,387.251616 L294.180684,403.752033 C296.205591,404.933923 298.675363,405.532543 301.4366,405.532543 C307.373258,405.532543 312.021339,402.846428 314.859276,397.796534 C316.853502,394.266212 317.344388,390.167969 316.255234,386.269266 C315.15074,382.293817 312.527565,378.993733 308.876597,376.936937 L264.957601,352.286083 L264.957601,275.570658 L330.076755,313.314401 L329.69325,364.995241 C329.66257,369.231627 331.273291,373.191726 334.20327,376.154127 C337.056547,379.024432 340.830237,380.590053 344.834029,380.590053 C353.209779,380.590053 359.867426,373.974537 359.990148,365.547813 L360.496375,330.705073 L395.9936,351.518621 C398.033847,352.685162 400.611001,353.253084 403.878464,353.253084 C409.462297,353.253084 413.926296,350.766509 416.810254,346.054297 C418.911861,342.63142 419.525469,338.579225 418.543696,334.619125" id="Fill-1" fill="#000000"></path>
                </g>
            </g>
        </g>
    </g>
</svg>