<?xml version="1.0" encoding="UTF-8"?>
<svg width="500px" height="500px" viewBox="0 0 500 500" version="1.1" xmlns="http://www.w3.org/2000/svg" xmlns:xlink="http://www.w3.org/1999/xlink">
    <!-- Generator: Sketch 42 (36781) - http://www.bohemiancoding.com/sketch -->
    <title>ic/SoundOn</title>
    <desc>Created with Sketch.</desc>
    <defs></defs>
    <g id="Master-UI-1024px" stroke="none" stroke-width="1" fill="none" fill-rule="evenodd">
        <g id="Master-UI-1024px-Iconography" transform="translate(-146.000000, -41936.000000)">
            <g id="Иконки" transform="translate(146.000000, 341.000000)">
                <g id="ic/SoundOn" transform="translate(0.000000, 41595.000000)">
                    <rect id="Container" x="0" y="0" width="500" height="500"></rect>
                    <path d="M110.56701,182 L29.004041,182 C25.6830428,182 23,184.68518 23,187.997517 L23,303.002483 C23,306.318122 25.6881007,309 29.004041,309 L110.711334,309 L213.971992,398.055554 C221.139754,405.164075 232,398.055554 232,390.947033 L232,308.445109 L232,182.43042 L232,99.9284962 C232,89.15801 221.139754,85.4960447 213.971992,92.8199753 L110.56701,182 Z" id="Combined-Shape" fill="#000000"></path>
                    <path d="M334,348.655993 C358.03673,322.777389 371,288.105218 371,250 C371,213.029994 356.776206,179.291531 334,153.680168" id="Oval-7" stroke="#000000" stroke-width="30" stroke-linecap="round"></path>
                    <path d="M398,406.360951 C435.646113,365.118746 458,310.24064 458,250 C458,190.498728 434.826745,136.229164 398,95.1637647" id="Oval-7-Copy" stroke="#000000" stroke-width="30" stroke-linecap="round"></path>
                </g>
            </g>
        </g>
    </g>
</svg>