<?xml version="1.0" encoding="UTF-8"?>
<svg width="500px" height="500px" viewBox="0 0 500 500" version="1.1" xmlns="http://www.w3.org/2000/svg" xmlns:xlink="http://www.w3.org/1999/xlink">
    <!-- Generator: Sketch 42 (36781) - http://www.bohemiancoding.com/sketch -->
    <title>ic/Support</title>
    <desc>Created with Sketch.</desc>
    <defs></defs>
    <g id="Master-UI-1024px" stroke="none" stroke-width="1" fill="none" fill-rule="evenodd">
        <g id="Master-UI-1024px-Iconography" transform="translate(-146.000000, -6281.000000)">
            <g id="Иконки" transform="translate(146.000000, 341.000000)">
                <g id="ic/Support" transform="translate(0.000000, 5940.000000)">
                    <rect id="Container" x="0" y="0" width="500" height="500"></rect>
                    <path d="M387.679144,221.024615 C386.705882,215.409231 382.962567,211.21641 377.871658,210.243077 L367.090909,207.922051 C364.770053,127.884103 336.245989,104 249.700535,104 C161.73262,104 133.657754,128.333333 131.786096,211.665641 L122.427807,213.537436 C117.262032,214.510769 113.518717,218.70359 112.620321,224.318974 C111.647059,231.356923 110.299465,242.138462 110.299465,258.011282 C110.299465,275.830769 111.721925,288.933333 112.620321,297.318974 C113.593583,302.934359 117.336898,307.651282 122.427807,308.549744 L162.181818,316.486154 C169.219251,317.908718 175.73262,312.742564 176.256684,304.806154 C177.679144,293.575385 179.101604,277.178462 179.101604,258.909744 C179.101604,241.614359 177.679144,226.64 176.780749,216.756923 C175.807487,209.269744 169.294118,204.10359 162.705882,205.526154 L156.641711,206.499487 C158.962567,142.409231 177.679144,128.782564 249.326203,128.782564 C320,128.782564 339.165775,141.885128 342.010695,203.205128 L337.294118,202.231795 C330.256684,200.809231 324.192513,205.975385 323.219251,213.462564 C321.796791,223.270769 320.898396,238.245128 320.898396,255.540513 C320.898396,273.809231 322.320856,290.655385 323.743316,301.436923 C324.716578,308.924103 331.229947,314.539487 337.818182,313.116923 L343.882353,311.694359 C342.010695,318.732308 339.165775,325.770256 334.973262,331.385641 C324.192513,347.333333 312.513369,355.718974 308.320856,358.564103 L283.540107,358.564103 C278.374332,350.10359 267.593583,344.488205 255.016043,344.488205 C237.272727,344.488205 222.748663,356.168205 222.748663,370.244103 C222.748663,384.32 237.272727,396 255.016043,396 C266.695187,396 277.026738,390.833846 282.641711,383.795897 L314.909091,383.795897 L317.229947,382.373333 C318.203209,381.924103 337.818182,372.041026 356.085561,345.386667 C364.545455,333.182564 368.737968,318.732308 371.058824,306.078974 L377.647059,304.65641 C382.812834,303.683077 386.55615,299.041026 387.454545,293.425641 C388.877005,284.965128 389.775401,271.862564 389.775401,254.117949 C390.074866,238.769231 389.101604,227.987692 387.679144,221.024615 Z" id="Shape" fill="#000000" fill-rule="nonzero"></path>
                </g>
            </g>
        </g>
    </g>
</svg>