<?xml version="1.0" encoding="UTF-8"?>
<svg width="500px" height="500px" viewBox="0 0 500 500" version="1.1" xmlns="http://www.w3.org/2000/svg" xmlns:xlink="http://www.w3.org/1999/xlink">
    <!-- Generator: Sketch 42 (36781) - http://www.bohemiancoding.com/sketch -->
    <title>ic/ThumbnailsSmall</title>
    <desc>Created with Sketch.</desc>
    <defs></defs>
    <g id="Master-UI-1024px" stroke="none" stroke-width="1" fill="none" fill-rule="evenodd">
        <g id="Master-UI-1024px-Iconography" transform="translate(-146.000000, -25721.000000)">
            <g id="Иконки" transform="translate(146.000000, 341.000000)">
                <g id="ic/ThumbnailsSmall" transform="translate(0.000000, 25380.000000)">
                    <rect id="Container" x="0" y="0" width="500" height="500"></rect>
                    <path d="M123,123 L173,123 L173,173 L123,173 L123,123 Z M123,191 L173,191 L173,241 L123,241 L123,191 Z M123,259 L173,259 L173,309 L123,309 L123,259 Z M123,327 L173,327 L173,377 L123,377 L123,327 Z M191,123 L241,123 L241,173 L191,173 L191,123 Z M191,191 L241,191 L241,241 L191,241 L191,191 Z M191,259 L241,259 L241,309 L191,309 L191,259 Z M191,327 L241,327 L241,377 L191,377 L191,327 Z M259,123 L309,123 L309,173 L259,173 L259,123 Z M259,191 L309,191 L309,241 L259,241 L259,191 Z M259,259 L309,259 L309,309 L259,309 L259,259 Z M259,327 L309,327 L309,377 L259,377 L259,327 Z M327,123 L377,123 L377,173 L327,173 L327,123 Z M327,191 L377,191 L377,241 L327,241 L327,191 Z M327,259 L377,259 L377,309 L327,309 L327,259 Z M327,327 L377,327 L377,377 L327,377 L327,327 Z" id="Combined-Shape" fill="#000000"></path>
                </g>
            </g>
        </g>
    </g>
</svg>