<?xml version="1.0" encoding="utf-8"?>
<!-- Generator: Adobe Illustrator 21.0.0, SVG Export Plug-In . SVG Version: 6.00 Build 0)  -->
<svg version="1.1" id="Ebene_1" xmlns="http://www.w3.org/2000/svg" xmlns:xlink="http://www.w3.org/1999/xlink" x="0px" y="0px"
	 viewBox="0 0 500 500" style="enable-background:new 0 0 500 500;" xml:space="preserve">
<path d="M250,0C111.5,0,0,111.5,0,250s111.5,250,250,250s250-111.5,250-250S388.5,0,250,0z M269.2,442.3v-68c0-6-5-11-11-11h-16.5
	c-6,0-11,5-11,11v68c-92.3-7.7-165.3-80.8-173-173h69.8c6,0,11-5,11-11v-16.5c0-6-5-11-11-11H57.7c7.7-92.3,80.8-165.3,173-173v68
	c0,6,5,11,11,11h16.5c6,0,11-5,11-11v-68c91,7.6,163.3,82.5,176.3,173H376c-6,0-11,5-11,11v16.5c0,6,5,11,11,11h70.1
	C434.6,361.5,361.5,434.6,269.2,442.3z"/>
</svg>
