<?xml version="1.0" encoding="utf-8"?>
<!-- Generator: Adobe Illustrator 21.0.0, SVG Export Plug-In . SVG Version: 6.00 Build 0)  -->
<svg version="1.1" id="Ebene_1" xmlns="http://www.w3.org/2000/svg" xmlns:xlink="http://www.w3.org/1999/xlink" x="0px" y="0px"
	 viewBox="0 0 500 500" style="enable-background:new 0 0 500 500;" xml:space="preserve">
<g>
	<rect x="261.5" y="157.7" width="123.1" height="30.8"/>
	<path d="M499.9,173.5c0-0.3,0-0.6,0-0.9C497.8,76.9,419.6,0,323.5,0c-0.1,0-0.1,0-0.2,0C225.9,0.1,147,79.1,147,176.5
		c0,28.8,6.9,56,19.1,80c0.9,1.8,1.9,3.6,2.9,5.4L11.5,419.2c-15.4,15.4-15.4,42.3,0,57.7L23,488.4c15.4,15.4,42.3,15.4,57.7,0
		l157.5-157.5c4.7,2.6,9.4,4.9,14.3,7.1c21.7,9.5,45.7,14.9,70.9,14.9c97.4,0,176.3-78.9,176.4-176.2c0-0.1,0-0.1,0-0.2
		C499.9,175.5,499.9,174.5,499.9,173.5z M413.9,250c-10.7,13.1-24.2,23.9-39.6,31.3c-15.3,7.4-32.6,11.6-50.7,11.6
		c-16.2,0-31.7-3.3-45.7-9.3c-30.5-13-54.3-38.7-64.9-70.4c-3.9-11.6-6-24-6-36.9c0-64.4,52.2-116.5,116.5-116.5
		c36.3,0,68.7,16.6,90.1,42.6c16.5,20.1,26.5,45.9,26.5,74c0,9.1-1.1,18-3,26.5C433,220.5,424.9,236.5,413.9,250z"/>
</g>
</svg>
